%!PS-Adobe-3.0 EPSF-3.0
%%Title: speicher/bezier_thck.eps
%%Creator: matplotlib version 3.3.4, http://matplotlib.org/
%%CreationDate: Fri Dec 10 10:35:02 2021
%%Orientation: portrait
%%BoundingBox: 75.6 223.20000000000002 536.4 568.8
%%EndComments
%%BeginProlog
/mpldict 8 dict def
mpldict begin
/m { moveto } bind def
/l { lineto } bind def
/r { rlineto } bind def
/c { curveto } bind def
/cl { closepath } bind def
/box {
      m
      1 index 0 r
      0 exch r
      neg 0 r
      cl
    } bind def
/clipbox {
      box
      clip
      newpath
    } bind def
%!PS-Adobe-3.0 Resource-Font
%%Title: DejaVu Sans
%%Copyright: Copyright (c) 2003 by Bitstream, Inc. All Rights Reserved. Copyright (c) 2006 by Tavmjong Bah. All Rights Reserved. DejaVu changes are in public domain 
%%Creator: Converted from TrueType to type 3 by PPR
25 dict begin
/_d{bind def}bind def
/_m{moveto}_d
/_l{lineto}_d
/_cl{closepath eofill}_d
/_c{curveto}_d
/_sc{7 -1 roll{setcachedevice}{pop pop pop pop pop pop}ifelse}_d
/_e{exec}_d
/FontName /DejaVuSans def
/PaintType 0 def
/FontMatrix[.001 0 0 .001 0 0]def
/FontBBox[-1021 -463 1793 1232]def
/FontType 3 def
/Encoding [ /period /zero /one /two /three /four /five /six /eight /bracketleft /bracketright /m ] def
/FontInfo 10 dict dup begin
/FamilyName (DejaVu Sans) def
/FullName (DejaVu Sans) def
/Notice (Copyright (c) 2003 by Bitstream, Inc. All Rights Reserved. Copyright (c) 2006 by Tavmjong Bah. All Rights Reserved. DejaVu changes are in public domain ) def
/Weight (Book) def
/Version (Version 2.35) def
/ItalicAngle 0.0 def
/isFixedPitch false def
/UnderlinePosition -130 def
/UnderlineThickness 90 def
end readonly def
/CharStrings 13 dict dup begin
/.notdef 0 def
/period{318 0 107 0 210 124 _sc
107 124 _m
210 124 _l
210 0 _l
107 0 _l
107 124 _l
_cl}_d
/zero{636 0 66 -13 570 742 _sc
318 664 _m
267 664 229 639 203 589 _c
177 539 165 464 165 364 _c
165 264 177 189 203 139 _c
229 89 267 64 318 64 _c
369 64 407 89 433 139 _c
458 189 471 264 471 364 _c
471 464 458 539 433 589 _c
407 639 369 664 318 664 _c
318 742 _m
399 742 461 709 505 645 _c
548 580 570 486 570 364 _c
570 241 548 147 505 83 _c
461 19 399 -13 318 -13 _c
236 -13 173 19 130 83 _c
87 147 66 241 66 364 _c
66 486 87 580 130 645 _c
173 709 236 742 318 742 _c
_cl}_d
/one{636 0 110 0 544 729 _sc
124 83 _m
285 83 _l
285 639 _l
110 604 _l
110 694 _l
284 729 _l
383 729 _l
383 83 _l
544 83 _l
544 0 _l
124 0 _l
124 83 _l
_cl}_d
/two{{636 0 73 0 536 742 _sc
192 83 _m
536 83 _l
536 0 _l
73 0 _l
73 83 _l
110 121 161 173 226 239 _c
290 304 331 346 348 365 _c
380 400 402 430 414 455 _c
426 479 433 504 433 528 _c
433 566 419 598 392 622 _c
365 646 330 659 286 659 _c
255 659 222 653 188 643 _c
154 632 117 616 78 594 _c
78 694 _l
118 710 155 722 189 730 _c
223 738 255 742 284 742 _c
}_e{359 742 419 723 464 685 _c
509 647 532 597 532 534 _c
532 504 526 475 515 449 _c
504 422 484 390 454 354 _c
446 344 420 317 376 272 _c
332 227 271 164 192 83 _c
_cl}_e}_d
/three{{636 0 76 -13 556 742 _sc
406 393 _m
453 383 490 362 516 330 _c
542 298 556 258 556 212 _c
556 140 531 84 482 45 _c
432 6 362 -13 271 -13 _c
240 -13 208 -10 176 -4 _c
144 1 110 10 76 22 _c
76 117 _l
103 101 133 89 166 81 _c
198 73 232 69 268 69 _c
330 69 377 81 409 105 _c
441 129 458 165 458 212 _c
458 254 443 288 413 312 _c
383 336 341 349 287 349 _c
}_e{202 349 _l
202 430 _l
291 430 _l
339 430 376 439 402 459 _c
428 478 441 506 441 543 _c
441 580 427 609 401 629 _c
374 649 336 659 287 659 _c
260 659 231 656 200 650 _c
169 644 135 635 98 623 _c
98 711 _l
135 721 170 729 203 734 _c
235 739 266 742 296 742 _c
370 742 429 725 473 691 _c
517 657 539 611 539 553 _c
539 513 527 479 504 451 _c
481 423 448 403 406 393 _c
_cl}_e}_d
/four{636 0 49 0 580 729 _sc
378 643 _m
129 254 _l
378 254 _l
378 643 _l
352 729 _m
476 729 _l
476 254 _l
580 254 _l
580 172 _l
476 172 _l
476 0 _l
378 0 _l
378 172 _l
49 172 _l
49 267 _l
352 729 _l
_cl}_d
/five{{636 0 77 -13 549 729 _sc
108 729 _m
495 729 _l
495 646 _l
198 646 _l
198 467 _l
212 472 227 476 241 478 _c
255 480 270 482 284 482 _c
365 482 429 459 477 415 _c
525 370 549 310 549 234 _c
549 155 524 94 475 51 _c
426 8 357 -13 269 -13 _c
238 -13 207 -10 175 -6 _c
143 -1 111 6 77 17 _c
77 116 _l
106 100 136 88 168 80 _c
199 72 232 69 267 69 _c
}_e{323 69 368 83 401 113 _c
433 143 450 183 450 234 _c
450 284 433 324 401 354 _c
368 384 323 399 267 399 _c
241 399 214 396 188 390 _c
162 384 135 375 108 363 _c
108 729 _l
_cl}_e}_d
/six{{636 0 70 -13 573 742 _sc
330 404 _m
286 404 251 388 225 358 _c
199 328 186 286 186 234 _c
186 181 199 139 225 109 _c
251 79 286 64 330 64 _c
374 64 409 79 435 109 _c
461 139 474 181 474 234 _c
474 286 461 328 435 358 _c
409 388 374 404 330 404 _c
526 713 _m
526 623 _l
501 635 476 644 451 650 _c
425 656 400 659 376 659 _c
310 659 260 637 226 593 _c
}_e{192 549 172 482 168 394 _c
187 422 211 444 240 459 _c
269 474 301 482 336 482 _c
409 482 467 459 509 415 _c
551 371 573 310 573 234 _c
573 159 550 99 506 54 _c
462 9 403 -13 330 -13 _c
246 -13 181 19 137 83 _c
92 147 70 241 70 364 _c
70 479 97 571 152 639 _c
206 707 280 742 372 742 _c
396 742 421 739 447 735 _c
472 730 498 723 526 713 _c
_cl}_e}_d
/eight{{636 0 68 -13 568 742 _sc
318 346 _m
271 346 234 333 207 308 _c
180 283 167 249 167 205 _c
167 161 180 126 207 101 _c
234 76 271 64 318 64 _c
364 64 401 76 428 102 _c
455 127 469 161 469 205 _c
469 249 455 283 429 308 _c
402 333 365 346 318 346 _c
219 388 _m
177 398 144 418 120 447 _c
96 476 85 511 85 553 _c
85 611 105 657 147 691 _c
188 725 245 742 318 742 _c
}_e{390 742 447 725 489 691 _c
530 657 551 611 551 553 _c
551 511 539 476 515 447 _c
491 418 459 398 417 388 _c
464 377 501 355 528 323 _c
554 291 568 251 568 205 _c
568 134 546 80 503 43 _c
459 5 398 -13 318 -13 _c
237 -13 175 5 132 43 _c
89 80 68 134 68 205 _c
68 251 81 291 108 323 _c
134 355 171 377 219 388 _c
183 544 _m
183 506 194 476 218 455 _c
}_e{242 434 275 424 318 424 _c
360 424 393 434 417 455 _c
441 476 453 506 453 544 _c
453 582 441 611 417 632 _c
393 653 360 664 318 664 _c
275 664 242 653 218 632 _c
194 611 183 582 183 544 _c
_cl}_e}_d
/bracketleft{390 0 86 -131 293 760 _sc
86 760 _m
293 760 _l
293 690 _l
176 690 _l
176 -61 _l
293 -61 _l
293 -131 _l
86 -131 _l
86 760 _l
_cl}_d
/bracketright{390 0 97 -131 304 760 _sc
304 760 _m
304 -131 _l
97 -131 _l
97 -61 _l
214 -61 _l
214 690 _l
97 690 _l
97 760 _l
304 760 _l
_cl}_d
/m{{974 0 91 0 889 560 _sc
520 442 _m
542 482 569 511 600 531 _c
631 550 668 560 711 560 _c
767 560 811 540 842 500 _c
873 460 889 403 889 330 _c
889 0 _l
799 0 _l
799 327 _l
799 379 789 418 771 444 _c
752 469 724 482 686 482 _c
639 482 602 466 575 435 _c
548 404 535 362 535 309 _c
535 0 _l
445 0 _l
445 327 _l
445 379 435 418 417 444 _c
398 469 369 482 331 482 _c
}_e{285 482 248 466 221 435 _c
194 404 181 362 181 309 _c
181 0 _l
91 0 _l
91 547 _l
181 547 _l
181 462 _l
201 495 226 520 255 536 _c
283 552 317 560 357 560 _c
397 560 430 550 458 530 _c
486 510 506 480 520 442 _c
_cl}_e}_d
end readonly def

/BuildGlyph
 {exch begin
 CharStrings exch
 2 copy known not{pop /.notdef}if
 true 3 1 roll get exec
 end}_d

/BuildChar {
 1 index /Encoding get exch get
 1 index /BuildGlyph get exec
}_d

FontName currentdict end definefont pop
end
%%EndProlog
mpldict begin
75.6 223.2 translate
460.8 345.6 0 0 clipbox
gsave
0 0 m
460.8 0 l
460.8 345.6 l
0 345.6 l
cl
1.000 setgray
fill
grestore
gsave
103.104 38.016 m
369.216 38.016 l
369.216 304.128 l
103.104 304.128 l
cl
1.000 setgray
fill
grestore
1.000 setlinewidth
0 setlinejoin
0 setlinecap
[] 0 setdash
0.950 setgray
gsave
123.197291 103.630691 m
211.076164 177.292505 l
209.854564 283.526009 l
117.770234 216.327059 l
gsave
fill
grestore
stroke
grestore
0.900 setgray
gsave
211.076164 177.292505 m
352.090401 136.305234 l
357.122702 246.197829 l
209.854564 283.526009 l
gsave
fill
grestore
stroke
grestore
0.925 setgray
gsave
123.197291 103.630691 m
272.679269 54.809877 l
352.090401 136.305234 l
211.076164 177.292505 l
gsave
fill
grestore
stroke
grestore
0.800 setlinewidth
1 setlinejoin
2 setlinecap
0.000 setgray
gsave
123.197291 103.630691 m
272.679269 54.809877 l
stroke
grestore
/DejaVuSans findfont
10.000 scalefont
setfont
gsave
170.895178 41.833973 translate
0.000000 rotate
0.000000 0 m /bracketleft glyphshow
3.901367 0 m /m glyphshow
13.642578 0 m /bracketright glyphshow
grestore
0 setlinecap
0.690 setgray
gsave
131.909335 100.785338 m
219.328932 174.893751 l
218.456223 281.345739 l
stroke
grestore
gsave
163.164395 90.577435 m
248.901321 166.298225 l
249.296251 273.528691 l
stroke
grestore
gsave
195.133082 80.136462 m
279.09243 157.522862 l
280.80969 265.540953 l
stroke
grestore
gsave
227.840119 69.454344 m
309.921883 148.561957 l
313.018839 257.376873 l
stroke
grestore
gsave
261.311385 58.522628 m
341.41014 139.409564 l
345.946995 249.030545 l
stroke
grestore
2 setlinecap
0.000 setgray
gsave
132.670572 101.430663 m
130.383594 99.491918 l
stroke
grestore
gsave
113.247135 77.483234 translate
0.000000 rotate
0.000000 0 m /zero glyphshow
6.362305 0 m /period glyphshow
9.541016 0 m /four glyphshow
15.903320 0 m /zero glyphshow
grestore
gsave
163.911664 91.237405 m
161.666614 89.254631 l
stroke
grestore
gsave
144.534374 67.058989 translate
0.000000 rotate
0.000000 0 m /zero glyphshow
6.362305 0 m /period glyphshow
9.541016 0 m /four glyphshow
15.903320 0 m /five glyphshow
grestore
gsave
195.865544 80.811581 m
193.664943 78.78326 l
stroke
grestore
gsave
176.538691 56.395829 translate
0.000000 rotate
0.000000 0 m /zero glyphshow
6.362305 0 m /period glyphshow
9.541016 0 m /five glyphshow
15.903320 0 m /zero glyphshow
grestore
gsave
228.556887 70.14514 m
226.403402 68.069684 l
stroke
grestore
gsave
209.285024 45.485445 translate
0.000000 rotate
0.000000 0 m /zero glyphshow
6.362305 0 m /period glyphshow
9.541016 0 m /five glyphshow
15.903320 0 m /five glyphshow
grestore
gsave
262.011521 59.229654 m
259.907968 57.105402 l
stroke
grestore
gsave
242.799480 34.319138 translate
0.000000 rotate
0.000000 0 m /zero glyphshow
6.362305 0 m /period glyphshow
9.541016 0 m /six glyphshow
15.903320 0 m /zero glyphshow
grestore
gsave
352.090401 136.305234 m
272.679269 54.809877 l
stroke
grestore
gsave
332.351532 66.612865 translate
0.000000 rotate
0.000000 0 m /bracketleft glyphshow
3.901367 0 m /m glyphshow
13.642578 0 m /bracketright glyphshow
grestore
0 setlinecap
0.690 setgray
gsave
123.945596 220.833557 m
129.069784 108.553131 l
278.007812 60.278273 l
stroke
grestore
gsave
141.076099 233.334618 m
145.375766 122.221128 l
292.786918 75.445272 l
stroke
grestore
gsave
157.669093 245.443429 m
161.192068 135.478666 l
307.099056 90.133047 l
stroke
grestore
gsave
173.749485 257.178167 m
176.540422 148.343961 l
320.966014 104.363956 l
stroke
grestore
gsave
189.340667 268.555902 m
191.441292 160.834166 l
334.408243 118.158991 l
stroke
grestore
gsave
204.46463 279.592681 m
205.913967 172.965449 l
347.444965 131.537874 l
stroke
grestore
2 setlinecap
0.000 setgray
gsave
276.752695 60.685091 m
280.521292 59.463586 l
stroke
grestore
gsave
282.937547 39.258705 translate
0.000000 rotate
0.000000 0 m /zero glyphshow
6.362305 0 m /period glyphshow
9.541016 0 m /zero glyphshow
grestore
gsave
291.545679 75.839137 m
295.272556 74.65654 l
stroke
grestore
gsave
297.518446 54.650278 translate
0.000000 rotate
0.000000 0 m /zero glyphshow
6.362305 0 m /period glyphshow
9.541016 0 m /two glyphshow
grestore
gsave
305.871451 90.514567 m
309.557342 89.369049 l
stroke
grestore
gsave
311.638373 69.555248 translate
0.000000 rotate
0.000000 0 m /zero glyphshow
6.362305 0 m /period glyphshow
9.541016 0 m /four glyphshow
grestore
gsave
319.751801 104.733704 m
323.397434 103.623548 l
stroke
grestore
gsave
325.318847 83.996333 translate
0.000000 rotate
0.000000 0 m /zero glyphshow
6.362305 0 m /period glyphshow
9.541016 0 m /six glyphshow
grestore
gsave
333.207185 118.517503 m
336.813277 117.441096 l
stroke
grestore
gsave
338.580070 97.994856 translate
0.000000 rotate
0.000000 0 m /zero glyphshow
6.362305 0 m /period glyphshow
9.541016 0 m /eight glyphshow
grestore
gsave
346.256825 131.885654 m
349.824086 130.841481 l
stroke
grestore
gsave
351.441023 111.570856 translate
0.000000 rotate
0.000000 0 m /one glyphshow
6.362305 0 m /period glyphshow
9.541016 0 m /zero glyphshow
grestore
gsave
352.090401 136.305234 m
357.122702 246.197829 l
stroke
grestore
gsave
386.145980 192.699284 translate
0.000000 rotate
0.000000 0 m /bracketleft glyphshow
3.901367 0 m /m glyphshow
13.642578 0 m /bracketright glyphshow
grestore
0 setlinecap
0.690 setgray
gsave
352.55109 146.365508 m
210.964117 187.03647 l
122.701224 113.931848 l
stroke
grestore
gsave
353.41697 165.274114 m
210.753636 205.340365 l
121.768436 133.301804 l
stroke
grestore
gsave
354.296246 184.475273 m
210.540056 223.913848 l
120.820661 152.982951 l
stroke
grestore
gsave
355.189233 203.975827 m
210.323307 242.762919 l
119.857537 172.982849 l
stroke
grestore
gsave
356.096254 223.782834 m
210.103318 261.893756 l
118.878687 193.309305 l
stroke
grestore
gsave
357.017641 243.903574 m
209.880015 281.312726 l
117.883723 213.970382 l
stroke
grestore
2 setlinecap
0.000 setgray
gsave
351.362557 146.706915 m
354.930993 145.681879 l
stroke
grestore
gsave
359.740143 141.357120 translate
0.000000 rotate
0.000000 0 m /zero glyphshow
6.362305 0 m /period glyphshow
9.541016 0 m /two glyphshow
15.903320 0 m /five glyphshow
grestore
gsave
352.21897 165.610566 m
355.815852 164.6004 l
stroke
grestore
gsave
360.743619 160.228153 translate
0.000000 rotate
0.000000 0 m /zero glyphshow
6.362305 0 m /period glyphshow
9.541016 0 m /three glyphshow
15.903320 0 m /zero glyphshow
grestore
gsave
353.088628 184.806575 m
356.714412 183.811865 l
stroke
grestore
gsave
361.762573 179.390265 translate
0.000000 rotate
0.000000 0 m /zero glyphshow
6.362305 0 m /period glyphshow
9.541016 0 m /three glyphshow
15.903320 0 m /five glyphshow
grestore
gsave
353.97184 204.301777 m
357.626995 203.323129 l
stroke
grestore
gsave
362.797367 198.850243 translate
0.000000 rotate
0.000000 0 m /zero glyphshow
6.362305 0 m /period glyphshow
9.541016 0 m /four glyphshow
15.903320 0 m /zero glyphshow
grestore
gsave
354.868927 224.103223 m
358.553931 223.141266 l
stroke
grestore
gsave
363.848371 218.615086 translate
0.000000 rotate
0.000000 0 m /zero glyphshow
6.362305 0 m /period glyphshow
9.541016 0 m /four glyphshow
15.903320 0 m /five glyphshow
grestore
gsave
355.780217 244.218184 m
359.495561 243.273573 l
stroke
grestore
gsave
364.915971 238.692016 translate
0.000000 rotate
0.000000 0 m /zero glyphshow
6.362305 0 m /period glyphshow
9.541016 0 m /five glyphshow
15.903320 0 m /zero glyphshow
grestore
1.500 setlinewidth
0.993 0.906 0.144 setrgbcolor
gsave
266.1 266.1 103.1 38.02 clipbox
340.984516 242.413647 m
stroke
grestore
0.984 0.905 0.137 setrgbcolor
gsave
266.1 266.1 103.1 38.02 clipbox
340.818758 242.26265 m
stroke
grestore
0.965 0.902 0.124 setrgbcolor
gsave
266.1 266.1 103.1 38.02 clipbox
340.652149 242.103251 m
stroke
grestore
0.955 0.901 0.118 setrgbcolor
gsave
266.1 266.1 103.1 38.02 clipbox
340.484749 241.934823 m
stroke
grestore
0.936 0.899 0.108 setrgbcolor
gsave
266.1 266.1 103.1 38.02 clipbox
340.316616 241.756741 m
stroke
grestore
0.916 0.896 0.101 setrgbcolor
gsave
266.1 266.1 103.1 38.02 clipbox
340.14781 241.568381 m
stroke
grestore
0.906 0.895 0.098 setrgbcolor
gsave
266.1 266.1 103.1 38.02 clipbox
339.978392 241.369117 m
stroke
grestore
0.886 0.892 0.095 setrgbcolor
gsave
266.1 266.1 103.1 38.02 clipbox
339.808422 241.158324 m
stroke
grestore
0.876 0.891 0.095 setrgbcolor
gsave
266.1 266.1 103.1 38.02 clipbox
339.63796 240.935376 m
stroke
grestore
0.856 0.889 0.097 setrgbcolor
gsave
266.1 266.1 103.1 38.02 clipbox
339.467069 240.69965 m
stroke
grestore
0.835 0.886 0.103 setrgbcolor
gsave
266.1 266.1 103.1 38.02 clipbox
339.29581 240.45052 m
stroke
grestore
0.825 0.885 0.106 setrgbcolor
gsave
266.1 266.1 103.1 38.02 clipbox
339.124244 240.187364 m
stroke
grestore
0.804 0.882 0.115 setrgbcolor
gsave
266.1 266.1 103.1 38.02 clipbox
338.952433 239.909558 m
stroke
grestore
0.794 0.881 0.120 setrgbcolor
gsave
266.1 266.1 103.1 38.02 clipbox
338.780441 239.616479 m
stroke
grestore
0.773 0.878 0.131 setrgbcolor
gsave
266.1 266.1 103.1 38.02 clipbox
338.608329 239.307506 m
stroke
grestore
0.752 0.875 0.143 setrgbcolor
gsave
266.1 266.1 103.1 38.02 clipbox
338.436162 238.982018 m
stroke
grestore
0.741 0.873 0.150 setrgbcolor
gsave
266.1 266.1 103.1 38.02 clipbox
338.264002 238.639394 m
stroke
grestore
0.720 0.870 0.163 setrgbcolor
gsave
266.1 266.1 103.1 38.02 clipbox
338.091913 238.279017 m
stroke
grestore
0.699 0.867 0.176 setrgbcolor
gsave
266.1 266.1 103.1 38.02 clipbox
337.919959 237.900268 m
stroke
grestore
0.689 0.865 0.183 setrgbcolor
gsave
266.1 266.1 103.1 38.02 clipbox
337.748205 237.502531 m
stroke
grestore
0.668 0.862 0.196 setrgbcolor
gsave
266.1 266.1 103.1 38.02 clipbox
337.576715 237.085192 m
stroke
grestore
0.647 0.858 0.210 setrgbcolor
gsave
266.1 266.1 103.1 38.02 clipbox
337.405553 236.647637 m
stroke
grestore
0.627 0.855 0.223 setrgbcolor
gsave
266.1 266.1 103.1 38.02 clipbox
337.234786 236.189255 m
stroke
grestore
0.616 0.853 0.230 setrgbcolor
gsave
266.1 266.1 103.1 38.02 clipbox
337.064479 235.709437 m
stroke
grestore
0.596 0.849 0.243 setrgbcolor
gsave
266.1 266.1 103.1 38.02 clipbox
336.894697 235.207575 m
stroke
grestore
0.576 0.845 0.256 setrgbcolor
gsave
266.1 266.1 103.1 38.02 clipbox
336.725507 234.683064 m
stroke
grestore
0.555 0.840 0.269 setrgbcolor
gsave
266.1 266.1 103.1 38.02 clipbox
336.556974 234.135302 m
stroke
grestore
0.546 0.838 0.276 setrgbcolor
gsave
266.1 266.1 103.1 38.02 clipbox
336.389167 233.563779 m
stroke
grestore
0.526 0.833 0.288 setrgbcolor
gsave
266.1 266.1 103.1 38.02 clipbox
336.222178 232.968818 m
stroke
grestore
0.506 0.829 0.300 setrgbcolor
gsave
266.1 266.1 103.1 38.02 clipbox
336.056112 232.351183 m
stroke
grestore
0.487 0.824 0.312 setrgbcolor
gsave
266.1 266.1 103.1 38.02 clipbox
335.891071 231.711646 m
stroke
grestore
0.478 0.821 0.318 setrgbcolor
gsave
266.1 266.1 103.1 38.02 clipbox
335.727159 231.050978 m
stroke
grestore
0.459 0.816 0.330 setrgbcolor
gsave
266.1 266.1 103.1 38.02 clipbox
335.564478 230.369951 m
stroke
grestore
0.440 0.811 0.341 setrgbcolor
gsave
266.1 266.1 103.1 38.02 clipbox
335.403133 229.669337 m
stroke
grestore
0.422 0.806 0.352 setrgbcolor
gsave
266.1 266.1 103.1 38.02 clipbox
335.243223 228.949907 m
stroke
grestore
0.404 0.800 0.363 setrgbcolor
gsave
266.1 266.1 103.1 38.02 clipbox
335.084853 228.212435 m
stroke
grestore
0.386 0.795 0.373 setrgbcolor
gsave
266.1 266.1 103.1 38.02 clipbox
334.928123 227.457694 m
stroke
grestore
0.378 0.792 0.378 setrgbcolor
gsave
266.1 266.1 103.1 38.02 clipbox
334.773135 226.686454 m
stroke
grestore
0.361 0.786 0.388 setrgbcolor
gsave
266.1 266.1 103.1 38.02 clipbox
334.61999 225.899488 m
stroke
grestore
0.344 0.780 0.397 setrgbcolor
gsave
266.1 266.1 103.1 38.02 clipbox
334.468789 225.097568 m
stroke
grestore
0.328 0.774 0.407 setrgbcolor
gsave
266.1 266.1 103.1 38.02 clipbox
334.319631 224.281463 m
stroke
grestore
0.312 0.768 0.416 setrgbcolor
gsave
266.1 266.1 103.1 38.02 clipbox
334.172617 223.451945 m
stroke
grestore
0.304 0.765 0.420 setrgbcolor
gsave
266.1 266.1 103.1 38.02 clipbox
334.027846 222.609783 m
stroke
grestore
0.289 0.758 0.428 setrgbcolor
gsave
266.1 266.1 103.1 38.02 clipbox
333.885418 221.755744 m
stroke
grestore
0.274 0.752 0.437 setrgbcolor
gsave
266.1 266.1 103.1 38.02 clipbox
333.745431 220.890597 m
stroke
grestore
0.260 0.745 0.444 setrgbcolor
gsave
266.1 266.1 103.1 38.02 clipbox
333.607985 220.015108 m
stroke
grestore
0.253 0.742 0.448 setrgbcolor
gsave
266.1 266.1 103.1 38.02 clipbox
333.473176 219.130041 m
stroke
grestore
0.239 0.736 0.456 setrgbcolor
gsave
266.1 266.1 103.1 38.02 clipbox
333.341104 218.236161 m
stroke
grestore
0.226 0.729 0.463 setrgbcolor
gsave
266.1 266.1 103.1 38.02 clipbox
333.211865 217.334231 m
stroke
grestore
0.220 0.726 0.466 setrgbcolor
gsave
266.1 266.1 103.1 38.02 clipbox
333.085557 216.42501 m
stroke
grestore
0.208 0.719 0.473 setrgbcolor
gsave
266.1 266.1 103.1 38.02 clipbox
332.962277 215.509259 m
stroke
grestore
0.202 0.715 0.476 setrgbcolor
gsave
266.1 266.1 103.1 38.02 clipbox
332.84212 214.587736 m
stroke
grestore
0.191 0.708 0.482 setrgbcolor
gsave
266.1 266.1 103.1 38.02 clipbox
332.725183 213.661198 m
stroke
grestore
0.186 0.705 0.485 setrgbcolor
gsave
266.1 266.1 103.1 38.02 clipbox
332.61156 212.730387 m
stroke
grestore
0.176 0.698 0.491 setrgbcolor
gsave
266.1 266.1 103.1 38.02 clipbox
332.501282 211.795766 m
stroke
grestore
0.171 0.694 0.494 setrgbcolor
gsave
266.1 266.1 103.1 38.02 clipbox
332.394317 210.857492 m
stroke
grestore
0.162 0.687 0.499 setrgbcolor
gsave
266.1 266.1 103.1 38.02 clipbox
332.290627 209.915709 m
stroke
grestore
0.158 0.684 0.502 setrgbcolor
gsave
266.1 266.1 103.1 38.02 clipbox
332.190177 208.970558 m
stroke
grestore
0.150 0.677 0.507 setrgbcolor
gsave
266.1 266.1 103.1 38.02 clipbox
332.092929 208.022183 m
stroke
grestore
0.147 0.673 0.509 setrgbcolor
gsave
266.1 266.1 103.1 38.02 clipbox
331.998846 207.070723 m
stroke
grestore
0.143 0.669 0.511 setrgbcolor
gsave
266.1 266.1 103.1 38.02 clipbox
331.907893 206.116321 m
stroke
grestore
0.137 0.662 0.516 setrgbcolor
gsave
266.1 266.1 103.1 38.02 clipbox
331.820031 205.159116 m
stroke
grestore
0.135 0.659 0.518 setrgbcolor
gsave
266.1 266.1 103.1 38.02 clipbox
331.735223 204.199248 m
stroke
grestore
0.132 0.655 0.520 setrgbcolor
gsave
266.1 266.1 103.1 38.02 clipbox
331.653433 203.236856 m
stroke
grestore
0.130 0.651 0.522 setrgbcolor
gsave
266.1 266.1 103.1 38.02 clipbox
331.574623 202.272079 m
stroke
grestore
0.126 0.644 0.525 setrgbcolor
gsave
266.1 266.1 103.1 38.02 clipbox
331.498756 201.305053 m
stroke
grestore
0.125 0.640 0.527 setrgbcolor
gsave
266.1 266.1 103.1 38.02 clipbox
331.425795 200.335917 m
stroke
grestore
0.123 0.637 0.529 setrgbcolor
gsave
266.1 266.1 103.1 38.02 clipbox
331.355702 199.364806 m
stroke
grestore
0.122 0.633 0.530 setrgbcolor
gsave
266.1 266.1 103.1 38.02 clipbox
331.288439 198.391858 m
stroke
grestore
0.121 0.629 0.532 setrgbcolor
gsave
266.1 266.1 103.1 38.02 clipbox
331.22397 197.417206 m
stroke
grestore
0.121 0.626 0.533 setrgbcolor
gsave
266.1 266.1 103.1 38.02 clipbox
331.162256 196.440986 m
stroke
grestore
0.120 0.622 0.535 setrgbcolor
gsave
266.1 266.1 103.1 38.02 clipbox
331.103261 195.463331 m
stroke
grestore
0.120 0.618 0.536 setrgbcolor
gsave
266.1 266.1 103.1 38.02 clipbox
331.046946 194.484375 m
stroke
grestore
0.119 0.615 0.538 setrgbcolor
gsave
266.1 266.1 103.1 38.02 clipbox
330.993275 193.504251 m
stroke
grestore
0.119 0.611 0.539 setrgbcolor
gsave
266.1 266.1 103.1 38.02 clipbox
330.942209 192.52309 m
stroke
grestore
0.120 0.607 0.540 setrgbcolor
gsave
266.1 266.1 103.1 38.02 clipbox
330.893711 191.541025 m
stroke
grestore
0.120 0.604 0.541 setrgbcolor
gsave
266.1 266.1 103.1 38.02 clipbox
330.847743 190.558184 m
stroke
grestore
0.120 0.600 0.543 setrgbcolor
gsave
266.1 266.1 103.1 38.02 clipbox
330.804267 189.574699 m
stroke
grestore
0.121 0.596 0.544 setrgbcolor
gsave
266.1 266.1 103.1 38.02 clipbox
330.763247 188.590699 m
stroke
grestore
0.121 0.593 0.545 setrgbcolor
gsave
266.1 266.1 103.1 38.02 clipbox
330.724643 187.606313 m
stroke
grestore
0.122 0.589 0.546 setrgbcolor
gsave
266.1 266.1 103.1 38.02 clipbox
330.688336 186.62166 m
stroke
grestore
0.123 0.585 0.547 setrgbcolor
gsave
266.1 266.1 103.1 38.02 clipbox
330.654026 185.636843 m
stroke
grestore
0.123 0.582 0.547 setrgbcolor
gsave
266.1 266.1 103.1 38.02 clipbox
330.621391 184.651964 m
stroke
grestore
0.124 0.578 0.548 setrgbcolor
gsave
266.1 266.1 103.1 38.02 clipbox
330.590108 183.66712 m
stroke
grestore
0.125 0.574 0.549 setrgbcolor
gsave
266.1 266.1 103.1 38.02 clipbox
330.559857 182.682413 m
stroke
grestore
0.126 0.571 0.550 setrgbcolor
gsave
266.1 266.1 103.1 38.02 clipbox
330.530315 181.69794 m
stroke
grestore
0.128 0.567 0.551 setrgbcolor
gsave
266.1 266.1 103.1 38.02 clipbox
330.501163 180.713801 m
stroke
grestore
0.129 0.563 0.551 setrgbcolor
gsave
266.1 266.1 103.1 38.02 clipbox
330.472079 179.730093 m
stroke
grestore
0.130 0.560 0.552 setrgbcolor
gsave
266.1 266.1 103.1 38.02 clipbox
330.442744 178.746914 m
stroke
grestore
gsave
266.1 266.1 103.1 38.02 clipbox
330.412837 177.76436 m
stroke
grestore
0.131 0.556 0.552 setrgbcolor
gsave
266.1 266.1 103.1 38.02 clipbox
330.382041 176.78253 m
stroke
grestore
0.132 0.552 0.553 setrgbcolor
gsave
266.1 266.1 103.1 38.02 clipbox
330.350036 175.801518 m
stroke
grestore
0.134 0.549 0.554 setrgbcolor
gsave
266.1 266.1 103.1 38.02 clipbox
330.316503 174.821422 m
stroke
grestore
0.135 0.545 0.554 setrgbcolor
gsave
266.1 266.1 103.1 38.02 clipbox
330.281124 173.842335 m
stroke
grestore
0.136 0.541 0.554 setrgbcolor
gsave
266.1 266.1 103.1 38.02 clipbox
330.243582 172.864354 m
stroke
grestore
gsave
266.1 266.1 103.1 38.02 clipbox
330.203559 171.887573 m
stroke
grestore
0.138 0.537 0.555 setrgbcolor
gsave
266.1 266.1 103.1 38.02 clipbox
330.160739 170.912085 m
stroke
grestore
0.139 0.534 0.555 setrgbcolor
gsave
266.1 266.1 103.1 38.02 clipbox
330.114804 169.937985 m
stroke
grestore
0.141 0.530 0.556 setrgbcolor
gsave
266.1 266.1 103.1 38.02 clipbox
330.065439 168.965365 m
stroke
grestore
0.142 0.526 0.556 setrgbcolor
gsave
266.1 266.1 103.1 38.02 clipbox
330.012328 167.994319 m
stroke
grestore
gsave
266.1 266.1 103.1 38.02 clipbox
329.955155 167.02494 m
stroke
grestore
0.143 0.523 0.556 setrgbcolor
gsave
266.1 266.1 103.1 38.02 clipbox
329.893606 166.057318 m
stroke
grestore
0.145 0.519 0.557 setrgbcolor
gsave
266.1 266.1 103.1 38.02 clipbox
329.827365 165.091545 m
stroke
grestore
0.146 0.515 0.557 setrgbcolor
gsave
266.1 266.1 103.1 38.02 clipbox
329.756119 164.127713 m
stroke
grestore
gsave
266.1 266.1 103.1 38.02 clipbox
329.679552 163.165913 m
stroke
grestore
0.148 0.512 0.557 setrgbcolor
gsave
266.1 266.1 103.1 38.02 clipbox
329.597353 162.206234 m
stroke
grestore
0.149 0.508 0.557 setrgbcolor
gsave
266.1 266.1 103.1 38.02 clipbox
329.509226 161.248824 m
stroke
grestore
0.150 0.504 0.557 setrgbcolor
gsave
266.1 266.1 103.1 38.02 clipbox
329.414971 160.294093 m
stroke
grestore
gsave
266.1 266.1 103.1 38.02 clipbox
329.314415 159.342528 m
stroke
grestore
0.152 0.501 0.558 setrgbcolor
gsave
266.1 266.1 103.1 38.02 clipbox
329.207383 158.394615 m
stroke
grestore
0.153 0.497 0.558 setrgbcolor
gsave
266.1 266.1 103.1 38.02 clipbox
329.093704 157.450839 m
stroke
grestore
0.155 0.493 0.558 setrgbcolor
gsave
266.1 266.1 103.1 38.02 clipbox
328.973203 156.511683 m
stroke
grestore
gsave
266.1 266.1 103.1 38.02 clipbox
328.845706 155.577628 m
stroke
grestore
0.156 0.490 0.558 setrgbcolor
gsave
266.1 266.1 103.1 38.02 clipbox
328.711041 154.649156 m
stroke
grestore
0.158 0.486 0.558 setrgbcolor
gsave
266.1 266.1 103.1 38.02 clipbox
328.569035 153.726746 m
stroke
grestore
0.159 0.482 0.558 setrgbcolor
gsave
266.1 266.1 103.1 38.02 clipbox
328.419513 152.810876 m
stroke
grestore
gsave
266.1 266.1 103.1 38.02 clipbox
328.262303 151.902023 m
stroke
grestore
0.161 0.479 0.558 setrgbcolor
gsave
266.1 266.1 103.1 38.02 clipbox
328.09723 151.000662 m
stroke
grestore
0.162 0.475 0.558 setrgbcolor
gsave
266.1 266.1 103.1 38.02 clipbox
327.924122 150.107269 m
stroke
grestore
0.164 0.471 0.558 setrgbcolor
gsave
266.1 266.1 103.1 38.02 clipbox
327.742805 149.222316 m
stroke
grestore
gsave
266.1 266.1 103.1 38.02 clipbox
327.553104 148.346277 m
stroke
grestore
0.165 0.467 0.558 setrgbcolor
gsave
266.1 266.1 103.1 38.02 clipbox
327.354846 147.479623 m
stroke
grestore
0.167 0.464 0.558 setrgbcolor
gsave
266.1 266.1 103.1 38.02 clipbox
327.147857 146.622824 m
stroke
grestore
0.168 0.460 0.558 setrgbcolor
gsave
266.1 266.1 103.1 38.02 clipbox
326.931962 145.776349 m
stroke
grestore
0.170 0.456 0.558 setrgbcolor
gsave
266.1 266.1 103.1 38.02 clipbox
326.706986 144.940668 m
stroke
grestore
gsave
266.1 266.1 103.1 38.02 clipbox
326.472755 144.116247 m
stroke
grestore
0.171 0.453 0.558 setrgbcolor
gsave
266.1 266.1 103.1 38.02 clipbox
326.229093 143.303555 m
stroke
grestore
0.173 0.449 0.558 setrgbcolor
gsave
266.1 266.1 103.1 38.02 clipbox
325.975826 142.503056 m
stroke
grestore
0.174 0.445 0.558 setrgbcolor
gsave
266.1 266.1 103.1 38.02 clipbox
325.712776 141.715217 m
stroke
grestore
gsave
266.1 266.1 103.1 38.02 clipbox
325.439768 140.940502 m
stroke
grestore
0.176 0.441 0.558 setrgbcolor
gsave
266.1 266.1 103.1 38.02 clipbox
325.156626 140.179375 m
stroke
grestore
0.177 0.438 0.558 setrgbcolor
gsave
266.1 266.1 103.1 38.02 clipbox
324.863171 139.4323 m
stroke
grestore
0.179 0.434 0.557 setrgbcolor
gsave
266.1 266.1 103.1 38.02 clipbox
324.559252 138.699721 m
stroke
grestore
0.181 0.430 0.557 setrgbcolor
gsave
266.1 266.1 103.1 38.02 clipbox
324.244987 137.981885 m
stroke
grestore
gsave
266.1 266.1 103.1 38.02 clipbox
323.920657 137.278913 m
stroke
grestore
0.182 0.426 0.557 setrgbcolor
gsave
266.1 266.1 103.1 38.02 clipbox
323.58655 136.590927 m
stroke
grestore
0.184 0.422 0.557 setrgbcolor
gsave
266.1 266.1 103.1 38.02 clipbox
323.24295 135.918051 m
stroke
grestore
0.186 0.419 0.557 setrgbcolor
gsave
266.1 266.1 103.1 38.02 clipbox
322.89014 135.260404 m
stroke
grestore
0.187 0.415 0.557 setrgbcolor
gsave
266.1 266.1 103.1 38.02 clipbox
322.528405 134.618112 m
stroke
grestore
gsave
266.1 266.1 103.1 38.02 clipbox
322.158028 133.991297 m
stroke
grestore
0.189 0.411 0.556 setrgbcolor
gsave
266.1 266.1 103.1 38.02 clipbox
321.779291 133.380083 m
stroke
grestore
0.191 0.407 0.556 setrgbcolor
gsave
266.1 266.1 103.1 38.02 clipbox
321.392475 132.784595 m
stroke
grestore
0.192 0.403 0.556 setrgbcolor
gsave
266.1 266.1 103.1 38.02 clipbox
320.997863 132.204956 m
stroke
grestore
0.194 0.399 0.556 setrgbcolor
gsave
266.1 266.1 103.1 38.02 clipbox
320.595736 131.641294 m
stroke
grestore
0.196 0.395 0.555 setrgbcolor
gsave
266.1 266.1 103.1 38.02 clipbox
320.186374 131.093732 m
stroke
grestore
gsave
266.1 266.1 103.1 38.02 clipbox
319.770056 130.562399 m
stroke
grestore
0.198 0.392 0.555 setrgbcolor
gsave
266.1 266.1 103.1 38.02 clipbox
319.347062 130.047421 m
stroke
grestore
0.199 0.388 0.555 setrgbcolor
gsave
266.1 266.1 103.1 38.02 clipbox
318.917673 129.548925 m
stroke
grestore
0.201 0.384 0.554 setrgbcolor
gsave
266.1 266.1 103.1 38.02 clipbox
318.482165 129.067039 m
stroke
grestore
0.203 0.380 0.554 setrgbcolor
gsave
266.1 266.1 103.1 38.02 clipbox
318.040818 128.601893 m
stroke
grestore
0.205 0.376 0.554 setrgbcolor
gsave
266.1 266.1 103.1 38.02 clipbox
317.59391 128.153615 m
stroke
grestore
gsave
266.1 266.1 103.1 38.02 clipbox
317.141717 127.722335 m
stroke
grestore
0.207 0.372 0.553 setrgbcolor
gsave
266.1 266.1 103.1 38.02 clipbox
316.684518 127.308184 m
stroke
grestore
0.209 0.368 0.553 setrgbcolor
gsave
266.1 266.1 103.1 38.02 clipbox
316.222589 126.911293 m
stroke
grestore
0.211 0.364 0.552 setrgbcolor
gsave
266.1 266.1 103.1 38.02 clipbox
315.756207 126.531793 m
stroke
grestore
gsave
266.1 266.1 103.1 38.02 clipbox
315.285648 126.169816 m
stroke
grestore
0.212 0.360 0.552 setrgbcolor
gsave
266.1 266.1 103.1 38.02 clipbox
314.811189 125.825497 m
stroke
grestore
0.214 0.356 0.551 setrgbcolor
gsave
266.1 266.1 103.1 38.02 clipbox
314.333104 125.498968 m
stroke
grestore
0.216 0.352 0.551 setrgbcolor
gsave
266.1 266.1 103.1 38.02 clipbox
313.851669 125.190357 m
stroke
grestore
0.218 0.347 0.550 setrgbcolor
gsave
266.1 266.1 103.1 38.02 clipbox
313.367092 124.899582 m
stroke
grestore
gsave
266.1 266.1 103.1 38.02 clipbox
312.879507 124.626297 m
stroke
grestore
0.220 0.343 0.549 setrgbcolor
gsave
266.1 266.1 103.1 38.02 clipbox
312.389039 124.370143 m
stroke
grestore
0.222 0.339 0.549 setrgbcolor
gsave
266.1 266.1 103.1 38.02 clipbox
311.895818 124.130762 m
stroke
grestore
gsave
266.1 266.1 103.1 38.02 clipbox
311.399969 123.907795 m
stroke
grestore
0.224 0.335 0.548 setrgbcolor
gsave
266.1 266.1 103.1 38.02 clipbox
310.901623 123.700886 m
stroke
grestore
0.226 0.331 0.547 setrgbcolor
gsave
266.1 266.1 103.1 38.02 clipbox
310.400906 123.509678 m
stroke
grestore
0.228 0.327 0.547 setrgbcolor
gsave
266.1 266.1 103.1 38.02 clipbox
309.897946 123.333816 m
stroke
grestore
gsave
266.1 266.1 103.1 38.02 clipbox
309.392873 123.172945 m
stroke
grestore
0.230 0.322 0.546 setrgbcolor
gsave
266.1 266.1 103.1 38.02 clipbox
308.885815 123.026709 m
stroke
grestore
0.232 0.318 0.545 setrgbcolor
gsave
266.1 266.1 103.1 38.02 clipbox
308.376901 122.894756 m
stroke
grestore
gsave
266.1 266.1 103.1 38.02 clipbox
307.86626 122.776731 m
stroke
grestore
0.234 0.314 0.544 setrgbcolor
gsave
266.1 266.1 103.1 38.02 clipbox
307.354022 122.672282 m
stroke
grestore
0.236 0.310 0.543 setrgbcolor
gsave
266.1 266.1 103.1 38.02 clipbox
306.840317 122.581055 m
stroke
grestore
gsave
266.1 266.1 103.1 38.02 clipbox
306.325274 122.5027 m
stroke
grestore
0.237 0.305 0.542 setrgbcolor
gsave
266.1 266.1 103.1 38.02 clipbox
305.809024 122.436863 m
stroke
grestore
gsave
266.1 266.1 103.1 38.02 clipbox
305.291697 122.383194 m
stroke
grestore
0.239 0.301 0.541 setrgbcolor
gsave
266.1 266.1 103.1 38.02 clipbox
304.773425 122.341341 m
stroke
grestore
0.241 0.296 0.540 setrgbcolor
gsave
266.1 266.1 103.1 38.02 clipbox
304.254339 122.310952 m
stroke
grestore
gsave
266.1 266.1 103.1 38.02 clipbox
303.734569 122.291678 m
stroke
grestore
0.243 0.292 0.539 setrgbcolor
gsave
266.1 266.1 103.1 38.02 clipbox
303.214249 122.283168 m
stroke
grestore
0.245 0.288 0.537 setrgbcolor
gsave
266.1 266.1 103.1 38.02 clipbox
302.69351 122.28507 m
stroke
grestore
gsave
266.1 266.1 103.1 38.02 clipbox
302.172485 122.297035 m
stroke
grestore
0.247 0.283 0.536 setrgbcolor
gsave
266.1 266.1 103.1 38.02 clipbox
301.651307 122.318713 m
stroke
grestore
gsave
266.1 266.1 103.1 38.02 clipbox
301.130108 122.349752 m
stroke
grestore
0.249 0.279 0.535 setrgbcolor
gsave
266.1 266.1 103.1 38.02 clipbox
300.609023 122.389804 m
stroke
grestore
gsave
266.1 266.1 103.1 38.02 clipbox
300.088149 122.438557 m
stroke
grestore
0.250 0.274 0.533 setrgbcolor
gsave
266.1 266.1 103.1 38.02 clipbox
299.567499 122.495799 m
stroke
grestore
gsave
266.1 266.1 103.1 38.02 clipbox
299.047068 122.561332 m
stroke
grestore
0.252 0.270 0.532 setrgbcolor
gsave
266.1 266.1 103.1 38.02 clipbox
298.526854 122.63496 m
stroke
grestore
0.254 0.265 0.530 setrgbcolor
gsave
266.1 266.1 103.1 38.02 clipbox
298.006854 122.716485 m
stroke
grestore
gsave
266.1 266.1 103.1 38.02 clipbox
297.487066 122.80571 m
stroke
grestore
0.256 0.261 0.528 setrgbcolor
gsave
266.1 266.1 103.1 38.02 clipbox
296.967488 122.902438 m
stroke
grestore
gsave
266.1 266.1 103.1 38.02 clipbox
296.448117 123.006473 m
stroke
grestore
0.257 0.256 0.527 setrgbcolor
gsave
266.1 266.1 103.1 38.02 clipbox
295.928952 123.117617 m
stroke
grestore
gsave
266.1 266.1 103.1 38.02 clipbox
295.409991 123.235672 m
stroke
grestore
0.259 0.252 0.525 setrgbcolor
gsave
266.1 266.1 103.1 38.02 clipbox
294.891231 123.360443 m
stroke
grestore
gsave
266.1 266.1 103.1 38.02 clipbox
294.372672 123.491731 m
stroke
grestore
0.261 0.247 0.523 setrgbcolor
gsave
266.1 266.1 103.1 38.02 clipbox
293.854311 123.62934 m
stroke
grestore
gsave
266.1 266.1 103.1 38.02 clipbox
293.336149 123.773072 m
stroke
grestore
0.262 0.242 0.521 setrgbcolor
gsave
266.1 266.1 103.1 38.02 clipbox
292.818183 123.922729 m
stroke
grestore
gsave
266.1 266.1 103.1 38.02 clipbox
292.300413 124.078115 m
stroke
grestore
0.264 0.238 0.519 setrgbcolor
gsave
266.1 266.1 103.1 38.02 clipbox
291.782838 124.239032 m
stroke
grestore
gsave
266.1 266.1 103.1 38.02 clipbox
291.265457 124.405283 m
stroke
grestore
gsave
266.1 266.1 103.1 38.02 clipbox
290.748271 124.576669 m
stroke
grestore
0.265 0.233 0.517 setrgbcolor
gsave
266.1 266.1 103.1 38.02 clipbox
290.231277 124.752992 m
stroke
grestore
gsave
266.1 266.1 103.1 38.02 clipbox
289.714477 124.934056 m
stroke
grestore
0.267 0.228 0.514 setrgbcolor
gsave
266.1 266.1 103.1 38.02 clipbox
289.197871 125.119661 m
stroke
grestore
gsave
266.1 266.1 103.1 38.02 clipbox
288.681458 125.309611 m
stroke
grestore
0.268 0.224 0.512 setrgbcolor
gsave
266.1 266.1 103.1 38.02 clipbox
288.165239 125.503705 m
stroke
grestore
gsave
266.1 266.1 103.1 38.02 clipbox
287.649214 125.701747 m
stroke
grestore
0.269 0.219 0.510 setrgbcolor
gsave
266.1 266.1 103.1 38.02 clipbox
287.133383 125.903537 m
stroke
grestore
gsave
266.1 266.1 103.1 38.02 clipbox
286.617747 126.10889 m
stroke
grestore
gsave
266.1 266.1 103.1 38.02 clipbox
286.1023 126.3177 m
stroke
grestore
0.271 0.214 0.507 setrgbcolor
gsave
266.1 266.1 103.1 38.02 clipbox
285.587033 126.529884 m
stroke
grestore
gsave
266.1 266.1 103.1 38.02 clipbox
285.071937 126.745361 m
stroke
grestore
0.272 0.209 0.504 setrgbcolor
gsave
266.1 266.1 103.1 38.02 clipbox
284.557007 126.964051 m
stroke
grestore
gsave
266.1 266.1 103.1 38.02 clipbox
284.042232 127.18587 m
stroke
grestore
gsave
266.1 266.1 103.1 38.02 clipbox
283.527606 127.410739 m
stroke
grestore
0.273 0.205 0.502 setrgbcolor
gsave
266.1 266.1 103.1 38.02 clipbox
283.01312 127.638575 m
stroke
grestore
gsave
266.1 266.1 103.1 38.02 clipbox
282.498767 127.869297 m
stroke
grestore
0.274 0.200 0.499 setrgbcolor
gsave
266.1 266.1 103.1 38.02 clipbox
281.984539 128.102822 m
stroke
grestore
gsave
266.1 266.1 103.1 38.02 clipbox
281.470429 128.33907 m
stroke
grestore
gsave
266.1 266.1 103.1 38.02 clipbox
280.956428 128.577958 m
stroke
grestore
0.275 0.195 0.496 setrgbcolor
gsave
266.1 266.1 103.1 38.02 clipbox
280.44253 128.819405 m
stroke
grestore
gsave
266.1 266.1 103.1 38.02 clipbox
279.928727 129.063328 m
stroke
grestore
0.276 0.190 0.493 setrgbcolor
gsave
266.1 266.1 103.1 38.02 clipbox
279.415011 129.309645 m
stroke
grestore
gsave
266.1 266.1 103.1 38.02 clipbox
278.901375 129.558275 m
stroke
grestore
gsave
266.1 266.1 103.1 38.02 clipbox
278.387812 129.809135 m
stroke
grestore
0.277 0.185 0.490 setrgbcolor
gsave
266.1 266.1 103.1 38.02 clipbox
277.874315 130.062142 m
stroke
grestore
gsave
266.1 266.1 103.1 38.02 clipbox
277.360876 130.317215 m
stroke
grestore
gsave
266.1 266.1 103.1 38.02 clipbox
276.847488 130.574271 m
stroke
grestore
0.278 0.180 0.487 setrgbcolor
gsave
266.1 266.1 103.1 38.02 clipbox
276.334144 130.833227 m
stroke
grestore
gsave
266.1 266.1 103.1 38.02 clipbox
275.820837 131.094001 m
stroke
grestore
gsave
266.1 266.1 103.1 38.02 clipbox
275.30756 131.35651 m
stroke
grestore
0.279 0.175 0.483 setrgbcolor
gsave
266.1 266.1 103.1 38.02 clipbox
274.794306 131.620672 m
stroke
grestore
gsave
266.1 266.1 103.1 38.02 clipbox
274.281068 131.886403 m
stroke
grestore
gsave
266.1 266.1 103.1 38.02 clipbox
273.76784 132.15362 m
stroke
grestore
0.280 0.171 0.480 setrgbcolor
gsave
266.1 266.1 103.1 38.02 clipbox
273.254615 132.422244 m
stroke
grestore
gsave
266.1 266.1 103.1 38.02 clipbox
272.741386 132.692223 m
stroke
grestore
gsave
266.1 266.1 103.1 38.02 clipbox
272.22815 132.963527 m
stroke
grestore
0.280 0.166 0.476 setrgbcolor
gsave
266.1 266.1 103.1 38.02 clipbox
271.714901 133.236127 m
stroke
grestore
gsave
266.1 266.1 103.1 38.02 clipbox
271.201635 133.509993 m
stroke
grestore
gsave
266.1 266.1 103.1 38.02 clipbox
270.688346 133.785097 m
stroke
grestore
0.281 0.161 0.473 setrgbcolor
gsave
266.1 266.1 103.1 38.02 clipbox
270.17503 134.061409 m
stroke
grestore
gsave
266.1 266.1 103.1 38.02 clipbox
269.661682 134.338899 m
stroke
grestore
gsave
266.1 266.1 103.1 38.02 clipbox
269.148297 134.617538 m
stroke
grestore
gsave
266.1 266.1 103.1 38.02 clipbox
268.63487 134.897297 m
stroke
grestore
0.281 0.156 0.469 setrgbcolor
gsave
266.1 266.1 103.1 38.02 clipbox
268.121398 135.178145 m
stroke
grestore
gsave
266.1 266.1 103.1 38.02 clipbox
267.607874 135.460055 m
stroke
grestore
gsave
266.1 266.1 103.1 38.02 clipbox
267.094294 135.742995 m
stroke
grestore
0.282 0.151 0.465 setrgbcolor
gsave
266.1 266.1 103.1 38.02 clipbox
266.580653 136.026936 m
stroke
grestore
gsave
266.1 266.1 103.1 38.02 clipbox
266.066948 136.31185 m
stroke
grestore
gsave
266.1 266.1 103.1 38.02 clipbox
265.553173 136.597705 m
stroke
grestore
gsave
266.1 266.1 103.1 38.02 clipbox
265.039323 136.884473 m
stroke
grestore
0.282 0.146 0.462 setrgbcolor
gsave
266.1 266.1 103.1 38.02 clipbox
264.525394 137.172123 m
stroke
grestore
gsave
266.1 266.1 103.1 38.02 clipbox
264.011381 137.460626 m
stroke
grestore
gsave
266.1 266.1 103.1 38.02 clipbox
263.49728 137.749952 m
stroke
grestore
0.283 0.141 0.458 setrgbcolor
gsave
266.1 266.1 103.1 38.02 clipbox
262.983086 138.040072 m
stroke
grestore
gsave
266.1 266.1 103.1 38.02 clipbox
262.468794 138.330954 m
stroke
grestore
gsave
266.1 266.1 103.1 38.02 clipbox
261.9544 138.622571 m
stroke
grestore
gsave
266.1 266.1 103.1 38.02 clipbox
261.4399 138.91489 m
stroke
grestore
0.283 0.136 0.453 setrgbcolor
gsave
266.1 266.1 103.1 38.02 clipbox
260.925289 139.207884 m
stroke
grestore
gsave
266.1 266.1 103.1 38.02 clipbox
260.410562 139.501521 m
stroke
grestore
gsave
266.1 266.1 103.1 38.02 clipbox
259.895715 139.795771 m
stroke
grestore
gsave
266.1 266.1 103.1 38.02 clipbox
259.380745 140.090613 m
stroke
grestore
0.283 0.131 0.449 setrgbcolor
gsave
266.1 266.1 103.1 38.02 clipbox
258.865649 140.386036 m
stroke
grestore
gsave
266.1 266.1 103.1 38.02 clipbox
258.350426 140.682027 m
stroke
grestore
gsave
266.1 266.1 103.1 38.02 clipbox
257.835074 140.978577 m
stroke
grestore
gsave
266.1 266.1 103.1 38.02 clipbox
257.319591 141.275674 m
stroke
grestore
0.283 0.126 0.445 setrgbcolor
gsave
266.1 266.1 103.1 38.02 clipbox
256.803976 141.573309 m
stroke
grestore
gsave
266.1 266.1 103.1 38.02 clipbox
256.288226 141.87147 m
stroke
grestore
gsave
266.1 266.1 103.1 38.02 clipbox
255.77234 142.170146 m
stroke
grestore
gsave
266.1 266.1 103.1 38.02 clipbox
255.256316 142.469327 m
stroke
grestore
0.283 0.121 0.441 setrgbcolor
gsave
266.1 266.1 103.1 38.02 clipbox
254.740151 142.769002 m
stroke
grestore
gsave
266.1 266.1 103.1 38.02 clipbox
254.223845 143.06916 m
stroke
grestore
gsave
266.1 266.1 103.1 38.02 clipbox
253.707396 143.36979 m
stroke
grestore
gsave
266.1 266.1 103.1 38.02 clipbox
253.190801 143.670882 m
stroke
grestore
gsave
266.1 266.1 103.1 38.02 clipbox
252.67406 143.972424 m
stroke
grestore
0.283 0.116 0.436 setrgbcolor
gsave
266.1 266.1 103.1 38.02 clipbox
252.15717 144.274406 m
stroke
grestore
gsave
266.1 266.1 103.1 38.02 clipbox
251.640129 144.576817 m
stroke
grestore
gsave
266.1 266.1 103.1 38.02 clipbox
251.122936 144.879646 m
stroke
grestore
gsave
266.1 266.1 103.1 38.02 clipbox
250.605589 145.182882 m
stroke
grestore
0.283 0.111 0.432 setrgbcolor
gsave
266.1 266.1 103.1 38.02 clipbox
250.088086 145.486514 m
stroke
grestore
gsave
266.1 266.1 103.1 38.02 clipbox
249.570425 145.790532 m
stroke
grestore
gsave
266.1 266.1 103.1 38.02 clipbox
249.052606 146.094923 m
stroke
grestore
gsave
266.1 266.1 103.1 38.02 clipbox
248.534626 146.399678 m
stroke
grestore
gsave
266.1 266.1 103.1 38.02 clipbox
248.016483 146.704786 m
stroke
grestore
0.283 0.105 0.427 setrgbcolor
gsave
266.1 266.1 103.1 38.02 clipbox
247.498176 147.010234 m
stroke
grestore
gsave
266.1 266.1 103.1 38.02 clipbox
246.979702 147.316014 m
stroke
grestore
gsave
266.1 266.1 103.1 38.02 clipbox
246.461061 147.622112 m
stroke
grestore
gsave
266.1 266.1 103.1 38.02 clipbox
245.942251 147.928521 m
stroke
grestore
gsave
266.1 266.1 103.1 38.02 clipbox
245.423271 148.235235 m
stroke
grestore
0.283 0.100 0.422 setrgbcolor
gsave
266.1 266.1 103.1 38.02 clipbox
244.90412 148.54225 m
stroke
grestore
gsave
266.1 266.1 103.1 38.02 clipbox
244.384797 148.849563 m
stroke
grestore
gsave
266.1 266.1 103.1 38.02 clipbox
243.865302 149.157169 m
stroke
grestore
gsave
266.1 266.1 103.1 38.02 clipbox
243.345633 149.465065 m
stroke
grestore
gsave
266.1 266.1 103.1 38.02 clipbox
242.82579 149.773247 m
stroke
grestore
0.282 0.095 0.417 setrgbcolor
gsave
266.1 266.1 103.1 38.02 clipbox
242.305772 150.08171 m
stroke
grestore
gsave
266.1 266.1 103.1 38.02 clipbox
241.785578 150.390451 m
stroke
grestore
gsave
266.1 266.1 103.1 38.02 clipbox
241.265207 150.699466 m
stroke
grestore
gsave
266.1 266.1 103.1 38.02 clipbox
240.744659 151.008751 m
stroke
grestore
gsave
266.1 266.1 103.1 38.02 clipbox
240.223933 151.318302 m
stroke
grestore
gsave
266.1 266.1 103.1 38.02 clipbox
239.703028 151.628115 m
stroke
grestore
0.282 0.090 0.412 setrgbcolor
gsave
266.1 266.1 103.1 38.02 clipbox
239.181943 151.938186 m
stroke
grestore
gsave
266.1 266.1 103.1 38.02 clipbox
238.660677 152.248512 m
stroke
grestore
gsave
266.1 266.1 103.1 38.02 clipbox
238.13923 152.559087 m
stroke
grestore
gsave
266.1 266.1 103.1 38.02 clipbox
237.617601 152.869909 m
stroke
grestore
gsave
266.1 266.1 103.1 38.02 clipbox
237.095788 153.180973 m
stroke
grestore
gsave
266.1 266.1 103.1 38.02 clipbox
236.573792 153.492275 m
stroke
grestore
0.281 0.084 0.407 setrgbcolor
gsave
266.1 266.1 103.1 38.02 clipbox
236.051611 153.803811 m
stroke
grestore
gsave
266.1 266.1 103.1 38.02 clipbox
235.529245 154.115578 m
stroke
grestore
gsave
266.1 266.1 103.1 38.02 clipbox
235.006693 154.42757 m
stroke
grestore
gsave
266.1 266.1 103.1 38.02 clipbox
234.483954 154.739786 m
stroke
grestore
gsave
266.1 266.1 103.1 38.02 clipbox
233.961027 155.052219 m
stroke
grestore
gsave
266.1 266.1 103.1 38.02 clipbox
233.437911 155.364867 m
stroke
grestore
0.281 0.079 0.402 setrgbcolor
gsave
266.1 266.1 103.1 38.02 clipbox
232.914607 155.677724 m
stroke
grestore
gsave
266.1 266.1 103.1 38.02 clipbox
232.391112 155.990789 m
stroke
grestore
gsave
266.1 266.1 103.1 38.02 clipbox
231.867427 156.304057 m
stroke
grestore
gsave
266.1 266.1 103.1 38.02 clipbox
231.343551 156.617529 m
stroke
grestore
gsave
266.1 266.1 103.1 38.02 clipbox
230.819483 156.931201 m
stroke
grestore
gsave
266.1 266.1 103.1 38.02 clipbox
230.295225 157.245074 m
stroke
grestore
0.280 0.073 0.397 setrgbcolor
gsave
266.1 266.1 103.1 38.02 clipbox
229.770774 157.559144 m
stroke
grestore
gsave
266.1 266.1 103.1 38.02 clipbox
229.24613 157.873411 m
stroke
grestore
gsave
266.1 266.1 103.1 38.02 clipbox
228.721294 158.187873 m
stroke
grestore
gsave
266.1 266.1 103.1 38.02 clipbox
228.196264 158.502528 m
stroke
grestore
gsave
266.1 266.1 103.1 38.02 clipbox
227.671041 158.817376 m
stroke
grestore
gsave
266.1 266.1 103.1 38.02 clipbox
227.145624 159.132413 m
stroke
grestore
gsave
266.1 266.1 103.1 38.02 clipbox
226.620013 159.44764 m
stroke
grestore
0.280 0.068 0.392 setrgbcolor
gsave
266.1 266.1 103.1 38.02 clipbox
226.094207 159.763054 m
stroke
grestore
gsave
266.1 266.1 103.1 38.02 clipbox
225.568206 160.078653 m
stroke
grestore
gsave
266.1 266.1 103.1 38.02 clipbox
225.042009 160.394437 m
stroke
grestore
gsave
266.1 266.1 103.1 38.02 clipbox
224.515616 160.710403 m
stroke
grestore
gsave
266.1 266.1 103.1 38.02 clipbox
223.989027 161.02655 m
stroke
grestore
gsave
266.1 266.1 103.1 38.02 clipbox
223.462241 161.342877 m
stroke
grestore
gsave
266.1 266.1 103.1 38.02 clipbox
222.935259 161.659381 m
stroke
grestore
gsave
266.1 266.1 103.1 38.02 clipbox
222.408079 161.976062 m
stroke
grestore
0.279 0.062 0.387 setrgbcolor
gsave
266.1 266.1 103.1 38.02 clipbox
221.880701 162.292918 m
stroke
grestore
gsave
266.1 266.1 103.1 38.02 clipbox
221.353125 162.609947 m
stroke
grestore
gsave
266.1 266.1 103.1 38.02 clipbox
220.82535 162.927147 m
stroke
grestore
gsave
266.1 266.1 103.1 38.02 clipbox
220.297376 163.244517 m
stroke
grestore
gsave
266.1 266.1 103.1 38.02 clipbox
219.769204 163.562056 m
stroke
grestore
gsave
266.1 266.1 103.1 38.02 clipbox
219.240831 163.879761 m
stroke
grestore
gsave
266.1 266.1 103.1 38.02 clipbox
218.712259 164.197632 m
stroke
grestore
gsave
266.1 266.1 103.1 38.02 clipbox
218.183486 164.515667 m
stroke
grestore
0.278 0.056 0.381 setrgbcolor
gsave
266.1 266.1 103.1 38.02 clipbox
217.654512 164.833866 m
stroke
grestore
gsave
266.1 266.1 103.1 38.02 clipbox
217.125338 165.152227 m
stroke
grestore
gsave
266.1 266.1 103.1 38.02 clipbox
216.595963 165.470751 m
stroke
grestore
gsave
266.1 266.1 103.1 38.02 clipbox
216.066386 165.789437 m
stroke
grestore
gsave
266.1 266.1 103.1 38.02 clipbox
215.536608 166.108284 m
stroke
grestore
gsave
266.1 266.1 103.1 38.02 clipbox
215.006628 166.427291 m
stroke
grestore
gsave
266.1 266.1 103.1 38.02 clipbox
214.476446 166.746458 m
stroke
grestore
gsave
266.1 266.1 103.1 38.02 clipbox
213.946061 167.065784 m
stroke
grestore
0.277 0.050 0.376 setrgbcolor
gsave
266.1 266.1 103.1 38.02 clipbox
213.415474 167.385269 m
stroke
grestore
gsave
266.1 266.1 103.1 38.02 clipbox
212.884685 167.704911 m
stroke
grestore
gsave
266.1 266.1 103.1 38.02 clipbox
212.353692 168.024711 m
stroke
grestore
gsave
266.1 266.1 103.1 38.02 clipbox
211.822496 168.344668 m
stroke
grestore
gsave
266.1 266.1 103.1 38.02 clipbox
211.291097 168.66478 m
stroke
grestore
gsave
266.1 266.1 103.1 38.02 clipbox
210.759494 168.985048 m
stroke
grestore
gsave
266.1 266.1 103.1 38.02 clipbox
210.227686 169.305471 m
stroke
grestore
gsave
266.1 266.1 103.1 38.02 clipbox
209.695675 169.626048 m
stroke
grestore
gsave
266.1 266.1 103.1 38.02 clipbox
209.163459 169.946779 m
stroke
grestore
0.276 0.044 0.370 setrgbcolor
gsave
266.1 266.1 103.1 38.02 clipbox
208.631039 170.267662 m
stroke
grestore
gsave
266.1 266.1 103.1 38.02 clipbox
208.098413 170.588697 m
stroke
grestore
gsave
266.1 266.1 103.1 38.02 clipbox
207.565583 170.909884 m
stroke
grestore
gsave
266.1 266.1 103.1 38.02 clipbox
207.032547 171.231222 m
stroke
grestore
gsave
266.1 266.1 103.1 38.02 clipbox
206.499305 171.55271 m
stroke
grestore
gsave
266.1 266.1 103.1 38.02 clipbox
205.965858 171.874348 m
stroke
grestore
gsave
266.1 266.1 103.1 38.02 clipbox
205.432204 172.196135 m
stroke
grestore
gsave
266.1 266.1 103.1 38.02 clipbox
204.898344 172.51807 m
stroke
grestore
gsave
266.1 266.1 103.1 38.02 clipbox
204.364277 172.840153 m
stroke
grestore
gsave
266.1 266.1 103.1 38.02 clipbox
203.830004 173.162383 m
stroke
grestore
gsave
266.1 266.1 103.1 38.02 clipbox
203.295524 173.484761 m
stroke
grestore
0.275 0.038 0.365 setrgbcolor
gsave
266.1 266.1 103.1 38.02 clipbox
202.760836 173.807285 m
stroke
grestore
gsave
266.1 266.1 103.1 38.02 clipbox
202.225941 174.129957 m
stroke
grestore
gsave
266.1 266.1 103.1 38.02 clipbox
201.690839 174.452775 m
stroke
grestore
gsave
266.1 266.1 103.1 38.02 clipbox
201.155529 174.775739 m
stroke
grestore
gsave
266.1 266.1 103.1 38.02 clipbox
200.620011 175.098849 m
stroke
grestore
gsave
266.1 266.1 103.1 38.02 clipbox
200.084286 175.422104 m
stroke
grestore
gsave
266.1 266.1 103.1 38.02 clipbox
199.548352 175.745505 m
stroke
grestore
gsave
266.1 266.1 103.1 38.02 clipbox
199.012209 176.069051 m
stroke
grestore
gsave
266.1 266.1 103.1 38.02 clipbox
198.475858 176.392742 m
stroke
grestore
gsave
266.1 266.1 103.1 38.02 clipbox
197.939298 176.716577 m
stroke
grestore
gsave
266.1 266.1 103.1 38.02 clipbox
197.402529 177.040557 m
stroke
grestore
0.274 0.031 0.359 setrgbcolor
gsave
266.1 266.1 103.1 38.02 clipbox
196.865551 177.36468 m
stroke
grestore
gsave
266.1 266.1 103.1 38.02 clipbox
196.328364 177.688948 m
stroke
grestore
gsave
266.1 266.1 103.1 38.02 clipbox
195.790967 178.013358 m
stroke
grestore
gsave
266.1 266.1 103.1 38.02 clipbox
195.253361 178.337912 m
stroke
grestore
gsave
266.1 266.1 103.1 38.02 clipbox
194.715545 178.662609 m
stroke
grestore
gsave
266.1 266.1 103.1 38.02 clipbox
194.177518 178.987448 m
stroke
grestore
gsave
266.1 266.1 103.1 38.02 clipbox
193.639282 179.312429 m
stroke
grestore
gsave
266.1 266.1 103.1 38.02 clipbox
193.100835 179.637553 m
stroke
grestore
gsave
266.1 266.1 103.1 38.02 clipbox
192.562177 179.962818 m
stroke
grestore
gsave
266.1 266.1 103.1 38.02 clipbox
192.023309 180.288225 m
stroke
grestore
gsave
266.1 266.1 103.1 38.02 clipbox
191.48423 180.613773 m
stroke
grestore
gsave
266.1 266.1 103.1 38.02 clipbox
190.944939 180.939462 m
stroke
grestore
gsave
266.1 266.1 103.1 38.02 clipbox
190.405437 181.265291 m
stroke
grestore
0.273 0.026 0.353 setrgbcolor
gsave
266.1 266.1 103.1 38.02 clipbox
189.865724 181.591261 m
stroke
grestore
gsave
266.1 266.1 103.1 38.02 clipbox
189.325799 181.917372 m
stroke
grestore
gsave
266.1 266.1 103.1 38.02 clipbox
188.785663 182.243622 m
stroke
grestore
gsave
266.1 266.1 103.1 38.02 clipbox
188.245314 182.570013 m
stroke
grestore
gsave
266.1 266.1 103.1 38.02 clipbox
187.704754 182.896544 m
stroke
grestore
gsave
266.1 266.1 103.1 38.02 clipbox
187.163981 183.223215 m
stroke
grestore
gsave
266.1 266.1 103.1 38.02 clipbox
186.622995 183.550026 m
stroke
grestore
gsave
266.1 266.1 103.1 38.02 clipbox
186.081797 183.876976 m
stroke
grestore
gsave
266.1 266.1 103.1 38.02 clipbox
185.540387 184.204066 m
stroke
grestore
gsave
266.1 266.1 103.1 38.02 clipbox
184.998763 184.531296 m
stroke
grestore
gsave
266.1 266.1 103.1 38.02 clipbox
184.456926 184.858665 m
stroke
grestore
gsave
266.1 266.1 103.1 38.02 clipbox
183.914877 185.186173 m
stroke
grestore
gsave
266.1 266.1 103.1 38.02 clipbox
183.372613 185.513821 m
stroke
grestore
gsave
266.1 266.1 103.1 38.02 clipbox
182.830137 185.841607 m
stroke
grestore
0.271 0.020 0.347 setrgbcolor
gsave
266.1 266.1 103.1 38.02 clipbox
182.287446 186.169533 m
stroke
grestore
gsave
266.1 266.1 103.1 38.02 clipbox
181.744542 186.497597 m
stroke
grestore
gsave
266.1 266.1 103.1 38.02 clipbox
181.201424 186.8258 m
stroke
grestore
gsave
266.1 266.1 103.1 38.02 clipbox
180.658091 187.154142 m
stroke
grestore
gsave
266.1 266.1 103.1 38.02 clipbox
180.114545 187.482622 m
stroke
grestore
gsave
266.1 266.1 103.1 38.02 clipbox
179.570783 187.81124 m
stroke
grestore
gsave
266.1 266.1 103.1 38.02 clipbox
179.026808 188.139997 m
stroke
grestore
gsave
266.1 266.1 103.1 38.02 clipbox
178.482617 188.468892 m
stroke
grestore
gsave
266.1 266.1 103.1 38.02 clipbox
177.938211 188.797925 m
stroke
grestore
gsave
266.1 266.1 103.1 38.02 clipbox
177.393591 189.127096 m
stroke
grestore
gsave
266.1 266.1 103.1 38.02 clipbox
176.848755 189.456405 m
stroke
grestore
gsave
266.1 266.1 103.1 38.02 clipbox
176.303703 189.785851 m
stroke
grestore
gsave
266.1 266.1 103.1 38.02 clipbox
175.758436 190.115435 m
stroke
grestore
gsave
266.1 266.1 103.1 38.02 clipbox
175.212954 190.445157 m
stroke
grestore
gsave
266.1 266.1 103.1 38.02 clipbox
174.667255 190.775016 m
stroke
grestore
gsave
266.1 266.1 103.1 38.02 clipbox
174.12134 191.105013 m
stroke
grestore
0.270 0.015 0.341 setrgbcolor
gsave
266.1 266.1 103.1 38.02 clipbox
173.57521 191.435147 m
stroke
grestore
gsave
266.1 266.1 103.1 38.02 clipbox
173.028863 191.765418 m
stroke
grestore
gsave
266.1 266.1 103.1 38.02 clipbox
172.482299 192.095827 m
stroke
grestore
gsave
266.1 266.1 103.1 38.02 clipbox
171.935519 192.426374 m
stroke
grestore
gsave
266.1 266.1 103.1 38.02 clipbox
171.388522 192.757057 m
stroke
grestore
gsave
266.1 266.1 103.1 38.02 clipbox
170.841308 193.087878 m
stroke
grestore
gsave
266.1 266.1 103.1 38.02 clipbox
170.293877 193.418837 m
stroke
grestore
gsave
266.1 266.1 103.1 38.02 clipbox
169.746229 193.749932 m
stroke
grestore
gsave
266.1 266.1 103.1 38.02 clipbox
169.198364 194.081165 m
stroke
grestore
gsave
266.1 266.1 103.1 38.02 clipbox
168.650281 194.412534 m
stroke
grestore
gsave
266.1 266.1 103.1 38.02 clipbox
168.10198 194.744041 m
stroke
grestore
gsave
266.1 266.1 103.1 38.02 clipbox
167.553462 195.075685 m
stroke
grestore
gsave
266.1 266.1 103.1 38.02 clipbox
167.004725 195.407466 m
stroke
grestore
gsave
266.1 266.1 103.1 38.02 clipbox
166.455771 195.739383 m
stroke
grestore
gsave
266.1 266.1 103.1 38.02 clipbox
165.906598 196.071438 m
stroke
grestore
gsave
266.1 266.1 103.1 38.02 clipbox
165.357207 196.40363 m
stroke
grestore
gsave
266.1 266.1 103.1 38.02 clipbox
164.807598 196.735958 m
stroke
grestore
gsave
266.1 266.1 103.1 38.02 clipbox
164.257769 197.068423 m
stroke
grestore
gsave
266.1 266.1 103.1 38.02 clipbox
163.707722 197.401025 m
stroke
grestore
gsave
266.1 266.1 103.1 38.02 clipbox
163.157456 197.733764 m
stroke
grestore
0.269 0.010 0.335 setrgbcolor
gsave
266.1 266.1 103.1 38.02 clipbox
162.606971 198.066639 m
stroke
grestore
gsave
266.1 266.1 103.1 38.02 clipbox
162.056266 198.399651 m
stroke
grestore
gsave
266.1 266.1 103.1 38.02 clipbox
161.505342 198.732799 m
stroke
grestore
gsave
266.1 266.1 103.1 38.02 clipbox
160.954198 199.066084 m
stroke
grestore
gsave
266.1 266.1 103.1 38.02 clipbox
160.402835 199.399506 m
stroke
grestore
gsave
266.1 266.1 103.1 38.02 clipbox
159.851252 199.733064 m
stroke
grestore
gsave
266.1 266.1 103.1 38.02 clipbox
159.299449 200.066759 m
stroke
grestore
gsave
266.1 266.1 103.1 38.02 clipbox
158.747425 200.400591 m
stroke
grestore
gsave
266.1 266.1 103.1 38.02 clipbox
158.195182 200.734559 m
stroke
grestore
gsave
266.1 266.1 103.1 38.02 clipbox
157.642717 201.068664 m
stroke
grestore
gsave
266.1 266.1 103.1 38.02 clipbox
157.090033 201.402906 m
stroke
grestore
gsave
266.1 266.1 103.1 38.02 clipbox
156.537127 201.737284 m
stroke
grestore
gsave
266.1 266.1 103.1 38.02 clipbox
155.984001 202.071798 m
stroke
grestore
gsave
266.1 266.1 103.1 38.02 clipbox
155.430654 202.40645 m
stroke
grestore
gsave
266.1 266.1 103.1 38.02 clipbox
154.877085 202.741238 m
stroke
grestore
gsave
266.1 266.1 103.1 38.02 clipbox
154.323296 203.076162 m
stroke
grestore
gsave
266.1 266.1 103.1 38.02 clipbox
153.769284 203.411224 m
stroke
grestore
gsave
266.1 266.1 103.1 38.02 clipbox
153.215051 203.746422 m
stroke
grestore
gsave
266.1 266.1 103.1 38.02 clipbox
152.660597 204.081756 m
stroke
grestore
gsave
266.1 266.1 103.1 38.02 clipbox
152.10592 204.417227 m
stroke
grestore
gsave
266.1 266.1 103.1 38.02 clipbox
151.551022 204.752835 m
stroke
grestore
gsave
266.1 266.1 103.1 38.02 clipbox
150.995901 205.08858 m
stroke
grestore
gsave
266.1 266.1 103.1 38.02 clipbox
150.440558 205.424461 m
stroke
grestore
0.267 0.005 0.329 setrgbcolor
gsave
266.1 266.1 103.1 38.02 clipbox
149.884993 205.760479 m
stroke
grestore
gsave
266.1 266.1 103.1 38.02 clipbox
149.329205 206.096633 m
stroke
grestore
gsave
266.1 266.1 103.1 38.02 clipbox
148.773194 206.432924 m
stroke
grestore
gsave
266.1 266.1 103.1 38.02 clipbox
148.216961 206.769352 m
stroke
grestore
gsave
266.1 266.1 103.1 38.02 clipbox
147.660504 207.105916 m
stroke
grestore
gsave
266.1 266.1 103.1 38.02 clipbox
147.103824 207.442617 m
stroke
grestore
gsave
266.1 266.1 103.1 38.02 clipbox
146.546921 207.779455 m
stroke
grestore
gsave
266.1 266.1 103.1 38.02 clipbox
145.989794 208.116429 m
stroke
grestore
gsave
266.1 266.1 103.1 38.02 clipbox
145.432444 208.453541 m
stroke
grestore
gsave
266.1 266.1 103.1 38.02 clipbox
144.87487 208.790789 m
stroke
grestore
gsave
266.1 266.1 103.1 38.02 clipbox
144.317072 209.128173 m
stroke
grestore
gsave
266.1 266.1 103.1 38.02 clipbox
143.75905 209.465695 m
stroke
grestore
gsave
266.1 266.1 103.1 38.02 clipbox
143.200804 209.803353 m
stroke
grestore
gsave
266.1 266.1 103.1 38.02 clipbox
142.642333 210.141148 m
stroke
grestore
gsave
266.1 266.1 103.1 38.02 clipbox
142.083638 210.47908 m
stroke
grestore
gsave
266.1 266.1 103.1 38.02 clipbox
141.524719 210.817149 m
stroke
grestore
gsave
266.1 266.1 103.1 38.02 clipbox
140.965574 211.155355 m
stroke
grestore
gsave
266.1 266.1 103.1 38.02 clipbox
140.406205 211.493697 m
stroke
grestore
gsave
266.1 266.1 103.1 38.02 clipbox
139.846611 211.832177 m
stroke
grestore
gsave
266.1 266.1 103.1 38.02 clipbox
139.286791 212.170794 m
stroke
grestore
gsave
266.1 266.1 103.1 38.02 clipbox
138.726746 212.509547 m
stroke
grestore
gsave
266.1 266.1 103.1 38.02 clipbox
138.166476 212.848438 m
stroke
grestore
gsave
266.1 266.1 103.1 38.02 clipbox
137.60598 213.187465 m
stroke
grestore
gsave
266.1 266.1 103.1 38.02 clipbox
137.045258 213.52663 m
stroke
grestore
gsave
266.1 266.1 103.1 38.02 clipbox
136.484311 213.865931 m
stroke
grestore
gsave
266.1 266.1 103.1 38.02 clipbox
135.923137 214.20537 m
stroke
grestore
gsave
266.1 266.1 103.1 38.02 clipbox
135.361737 214.544946 m
stroke
grestore
gsave
266.1 266.1 103.1 38.02 clipbox
134.800111 214.884659 m
stroke
grestore
gsave
266.1 266.1 103.1 38.02 clipbox
134.238258 215.224509 m
stroke
grestore
gsave
266.1 266.1 103.1 38.02 clipbox
133.676179 215.564496 m
stroke
grestore

end
showpage
