%!PS-Adobe-3.0 EPSF-3.0
%%Title: speicher/bezier_plot.eps
%%Creator: matplotlib version 3.3.4, http://matplotlib.org/
%%CreationDate: Thu Dec  9 16:32:06 2021
%%Orientation: portrait
%%BoundingBox: 75.6 223.20000000000002 536.4 568.8
%%EndComments
%%BeginProlog
/mpldict 8 dict def
mpldict begin
/m { moveto } bind def
/l { lineto } bind def
/r { rlineto } bind def
/c { curveto } bind def
/cl { closepath } bind def
/box {
      m
      1 index 0 r
      0 exch r
      neg 0 r
      cl
    } bind def
/clipbox {
      box
      clip
      newpath
    } bind def
%!PS-Adobe-3.0 Resource-Font
%%Title: DejaVu Sans
%%Copyright: Copyright (c) 2003 by Bitstream, Inc. All Rights Reserved. Copyright (c) 2006 by Tavmjong Bah. All Rights Reserved. DejaVu changes are in public domain 
%%Creator: Converted from TrueType to type 3 by PPR
25 dict begin
/_d{bind def}bind def
/_m{moveto}_d
/_l{lineto}_d
/_cl{closepath eofill}_d
/_c{curveto}_d
/_sc{7 -1 roll{setcachedevice}{pop pop pop pop pop pop}ifelse}_d
/_e{exec}_d
/FontName /DejaVuSans def
/PaintType 0 def
/FontMatrix[.001 0 0 .001 0 0]def
/FontBBox[-1021 -463 1793 1232]def
/FontType 3 def
/Encoding [ /period /zero /one /two /three /four /five /six /eight /bracketleft /bracketright /m ] def
/FontInfo 10 dict dup begin
/FamilyName (DejaVu Sans) def
/FullName (DejaVu Sans) def
/Notice (Copyright (c) 2003 by Bitstream, Inc. All Rights Reserved. Copyright (c) 2006 by Tavmjong Bah. All Rights Reserved. DejaVu changes are in public domain ) def
/Weight (Book) def
/Version (Version 2.35) def
/ItalicAngle 0.0 def
/isFixedPitch false def
/UnderlinePosition -130 def
/UnderlineThickness 90 def
end readonly def
/CharStrings 13 dict dup begin
/.notdef 0 def
/period{318 0 107 0 210 124 _sc
107 124 _m
210 124 _l
210 0 _l
107 0 _l
107 124 _l
_cl}_d
/zero{636 0 66 -13 570 742 _sc
318 664 _m
267 664 229 639 203 589 _c
177 539 165 464 165 364 _c
165 264 177 189 203 139 _c
229 89 267 64 318 64 _c
369 64 407 89 433 139 _c
458 189 471 264 471 364 _c
471 464 458 539 433 589 _c
407 639 369 664 318 664 _c
318 742 _m
399 742 461 709 505 645 _c
548 580 570 486 570 364 _c
570 241 548 147 505 83 _c
461 19 399 -13 318 -13 _c
236 -13 173 19 130 83 _c
87 147 66 241 66 364 _c
66 486 87 580 130 645 _c
173 709 236 742 318 742 _c
_cl}_d
/one{636 0 110 0 544 729 _sc
124 83 _m
285 83 _l
285 639 _l
110 604 _l
110 694 _l
284 729 _l
383 729 _l
383 83 _l
544 83 _l
544 0 _l
124 0 _l
124 83 _l
_cl}_d
/two{{636 0 73 0 536 742 _sc
192 83 _m
536 83 _l
536 0 _l
73 0 _l
73 83 _l
110 121 161 173 226 239 _c
290 304 331 346 348 365 _c
380 400 402 430 414 455 _c
426 479 433 504 433 528 _c
433 566 419 598 392 622 _c
365 646 330 659 286 659 _c
255 659 222 653 188 643 _c
154 632 117 616 78 594 _c
78 694 _l
118 710 155 722 189 730 _c
223 738 255 742 284 742 _c
}_e{359 742 419 723 464 685 _c
509 647 532 597 532 534 _c
532 504 526 475 515 449 _c
504 422 484 390 454 354 _c
446 344 420 317 376 272 _c
332 227 271 164 192 83 _c
_cl}_e}_d
/three{{636 0 76 -13 556 742 _sc
406 393 _m
453 383 490 362 516 330 _c
542 298 556 258 556 212 _c
556 140 531 84 482 45 _c
432 6 362 -13 271 -13 _c
240 -13 208 -10 176 -4 _c
144 1 110 10 76 22 _c
76 117 _l
103 101 133 89 166 81 _c
198 73 232 69 268 69 _c
330 69 377 81 409 105 _c
441 129 458 165 458 212 _c
458 254 443 288 413 312 _c
383 336 341 349 287 349 _c
}_e{202 349 _l
202 430 _l
291 430 _l
339 430 376 439 402 459 _c
428 478 441 506 441 543 _c
441 580 427 609 401 629 _c
374 649 336 659 287 659 _c
260 659 231 656 200 650 _c
169 644 135 635 98 623 _c
98 711 _l
135 721 170 729 203 734 _c
235 739 266 742 296 742 _c
370 742 429 725 473 691 _c
517 657 539 611 539 553 _c
539 513 527 479 504 451 _c
481 423 448 403 406 393 _c
_cl}_e}_d
/four{636 0 49 0 580 729 _sc
378 643 _m
129 254 _l
378 254 _l
378 643 _l
352 729 _m
476 729 _l
476 254 _l
580 254 _l
580 172 _l
476 172 _l
476 0 _l
378 0 _l
378 172 _l
49 172 _l
49 267 _l
352 729 _l
_cl}_d
/five{{636 0 77 -13 549 729 _sc
108 729 _m
495 729 _l
495 646 _l
198 646 _l
198 467 _l
212 472 227 476 241 478 _c
255 480 270 482 284 482 _c
365 482 429 459 477 415 _c
525 370 549 310 549 234 _c
549 155 524 94 475 51 _c
426 8 357 -13 269 -13 _c
238 -13 207 -10 175 -6 _c
143 -1 111 6 77 17 _c
77 116 _l
106 100 136 88 168 80 _c
199 72 232 69 267 69 _c
}_e{323 69 368 83 401 113 _c
433 143 450 183 450 234 _c
450 284 433 324 401 354 _c
368 384 323 399 267 399 _c
241 399 214 396 188 390 _c
162 384 135 375 108 363 _c
108 729 _l
_cl}_e}_d
/six{{636 0 70 -13 573 742 _sc
330 404 _m
286 404 251 388 225 358 _c
199 328 186 286 186 234 _c
186 181 199 139 225 109 _c
251 79 286 64 330 64 _c
374 64 409 79 435 109 _c
461 139 474 181 474 234 _c
474 286 461 328 435 358 _c
409 388 374 404 330 404 _c
526 713 _m
526 623 _l
501 635 476 644 451 650 _c
425 656 400 659 376 659 _c
310 659 260 637 226 593 _c
}_e{192 549 172 482 168 394 _c
187 422 211 444 240 459 _c
269 474 301 482 336 482 _c
409 482 467 459 509 415 _c
551 371 573 310 573 234 _c
573 159 550 99 506 54 _c
462 9 403 -13 330 -13 _c
246 -13 181 19 137 83 _c
92 147 70 241 70 364 _c
70 479 97 571 152 639 _c
206 707 280 742 372 742 _c
396 742 421 739 447 735 _c
472 730 498 723 526 713 _c
_cl}_e}_d
/eight{{636 0 68 -13 568 742 _sc
318 346 _m
271 346 234 333 207 308 _c
180 283 167 249 167 205 _c
167 161 180 126 207 101 _c
234 76 271 64 318 64 _c
364 64 401 76 428 102 _c
455 127 469 161 469 205 _c
469 249 455 283 429 308 _c
402 333 365 346 318 346 _c
219 388 _m
177 398 144 418 120 447 _c
96 476 85 511 85 553 _c
85 611 105 657 147 691 _c
188 725 245 742 318 742 _c
}_e{390 742 447 725 489 691 _c
530 657 551 611 551 553 _c
551 511 539 476 515 447 _c
491 418 459 398 417 388 _c
464 377 501 355 528 323 _c
554 291 568 251 568 205 _c
568 134 546 80 503 43 _c
459 5 398 -13 318 -13 _c
237 -13 175 5 132 43 _c
89 80 68 134 68 205 _c
68 251 81 291 108 323 _c
134 355 171 377 219 388 _c
183 544 _m
183 506 194 476 218 455 _c
}_e{242 434 275 424 318 424 _c
360 424 393 434 417 455 _c
441 476 453 506 453 544 _c
453 582 441 611 417 632 _c
393 653 360 664 318 664 _c
275 664 242 653 218 632 _c
194 611 183 582 183 544 _c
_cl}_e}_d
/bracketleft{390 0 86 -131 293 760 _sc
86 760 _m
293 760 _l
293 690 _l
176 690 _l
176 -61 _l
293 -61 _l
293 -131 _l
86 -131 _l
86 760 _l
_cl}_d
/bracketright{390 0 97 -131 304 760 _sc
304 760 _m
304 -131 _l
97 -131 _l
97 -61 _l
214 -61 _l
214 690 _l
97 690 _l
97 760 _l
304 760 _l
_cl}_d
/m{{974 0 91 0 889 560 _sc
520 442 _m
542 482 569 511 600 531 _c
631 550 668 560 711 560 _c
767 560 811 540 842 500 _c
873 460 889 403 889 330 _c
889 0 _l
799 0 _l
799 327 _l
799 379 789 418 771 444 _c
752 469 724 482 686 482 _c
639 482 602 466 575 435 _c
548 404 535 362 535 309 _c
535 0 _l
445 0 _l
445 327 _l
445 379 435 418 417 444 _c
398 469 369 482 331 482 _c
}_e{285 482 248 466 221 435 _c
194 404 181 362 181 309 _c
181 0 _l
91 0 _l
91 547 _l
181 547 _l
181 462 _l
201 495 226 520 255 536 _c
283 552 317 560 357 560 _c
397 560 430 550 458 530 _c
486 510 506 480 520 442 _c
_cl}_e}_d
end readonly def

/BuildGlyph
 {exch begin
 CharStrings exch
 2 copy known not{pop /.notdef}if
 true 3 1 roll get exec
 end}_d

/BuildChar {
 1 index /Encoding get exch get
 1 index /BuildGlyph get exec
}_d

FontName currentdict end definefont pop
end
%%EndProlog
mpldict begin
75.6 223.2 translate
460.8 345.6 0 0 clipbox
gsave
0 0 m
460.8 0 l
460.8 345.6 l
0 345.6 l
cl
1.000 setgray
fill
grestore
gsave
103.104 38.016 m
369.216 38.016 l
369.216 304.128 l
103.104 304.128 l
cl
1.000 setgray
fill
grestore
1.000 setlinewidth
0 setlinejoin
0 setlinecap
[] 0 setdash
0.950 setgray
gsave
123.197291 103.630691 m
211.076164 177.292505 l
209.854564 283.526009 l
117.770234 216.327059 l
gsave
fill
grestore
stroke
grestore
0.900 setgray
gsave
211.076164 177.292505 m
352.090401 136.305234 l
357.122702 246.197829 l
209.854564 283.526009 l
gsave
fill
grestore
stroke
grestore
0.925 setgray
gsave
123.197291 103.630691 m
272.679269 54.809877 l
352.090401 136.305234 l
211.076164 177.292505 l
gsave
fill
grestore
stroke
grestore
0.800 setlinewidth
1 setlinejoin
2 setlinecap
0.000 setgray
gsave
123.197291 103.630691 m
272.679269 54.809877 l
stroke
grestore
/DejaVuSans findfont
10.000 scalefont
setfont
gsave
170.895178 41.833973 translate
0.000000 rotate
0.000000 0 m /bracketleft glyphshow
3.901367 0 m /m glyphshow
13.642578 0 m /bracketright glyphshow
grestore
0 setlinecap
0.690 setgray
gsave
132.250704 100.673846 m
219.652219 174.799785 l
218.79322 281.26032 l
stroke
grestore
gsave
157.092726 92.560442 m
243.160809 167.966766 l
243.307534 275.046656 l
stroke
grestore
gsave
182.384459 84.300162 m
267.059516 161.020355 l
268.246337 268.725397 l
stroke
grestore
gsave
208.138227 75.888981 m
291.358132 153.957707 l
293.620751 262.293723 l
stroke
grestore
gsave
234.366809 67.322727 m
316.066779 146.775878 l
319.44229 255.748715 l
stroke
grestore
gsave
261.083455 58.59707 m
341.195924 139.471828 l
345.722878 249.087352 l
stroke
grestore
2 setlinecap
0.000 setgray
gsave
133.011792 101.319331 m
130.725263 99.380108 l
stroke
grestore
gsave
113.588842 77.369385 translate
0.000000 rotate
0.000000 0 m /zero glyphshow
6.362305 0 m /period glyphshow
9.541016 0 m /four glyphshow
15.903320 0 m /zero glyphshow
grestore
gsave
157.842748 93.217555 m
155.589434 91.243372 l
stroke
grestore
gsave
138.456249 69.084092 translate
0.000000 rotate
0.000000 0 m /zero glyphshow
6.362305 0 m /period glyphshow
9.541016 0 m /four glyphshow
15.903320 0 m /two glyphshow
grestore
gsave
183.122889 84.96922 m
180.904373 82.959124 l
stroke
grestore
gsave
163.775530 60.648244 translate
0.000000 rotate
0.000000 0 m /zero glyphshow
6.362305 0 m /period glyphshow
9.541016 0 m /four glyphshow
15.903320 0 m /four glyphshow
grestore
gsave
208.864515 76.570313 m
206.68245 74.523315 l
stroke
grestore
gsave
189.559117 52.057699 translate
0.000000 rotate
0.000000 0 m /zero glyphshow
6.362305 0 m /period glyphshow
9.541016 0 m /four glyphshow
15.903320 0 m /six glyphshow
grestore
gsave
235.080378 68.016673 m
232.936494 65.931747 l
stroke
grestore
gsave
215.819899 43.308163 translate
0.000000 rotate
0.000000 0 m /zero glyphshow
6.362305 0 m /period glyphshow
9.541016 0 m /four glyphshow
15.903320 0 m /eight glyphshow
grestore
gsave
261.783707 59.303984 m
259.679808 57.180067 l
stroke
grestore
gsave
242.571247 34.395181 translate
0.000000 rotate
0.000000 0 m /zero glyphshow
6.362305 0 m /period glyphshow
9.541016 0 m /five glyphshow
15.903320 0 m /zero glyphshow
grestore
gsave
352.090401 136.305234 m
272.679269 54.809877 l
stroke
grestore
gsave
332.351532 66.612865 translate
0.000000 rotate
0.000000 0 m /bracketleft glyphshow
3.901367 0 m /m glyphshow
13.642578 0 m /bracketright glyphshow
grestore
0 setlinecap
0.690 setgray
gsave
124.138093 220.974033 m
129.252888 108.706613 l
278.173905 60.448725 l
stroke
grestore
gsave
141.225233 233.443449 m
145.517822 122.340203 l
292.915566 75.577296 l
stroke
grestore
gsave
157.777465 245.522514 m
161.295438 135.565313 l
307.192521 90.228964 l
stroke
grestore
gsave
173.819521 257.229276 m
176.607314 148.400031 l
321.026403 104.42593 l
stroke
grestore
gsave
189.374629 268.580685 m
191.473771 160.86139 l
334.437521 118.189037 l
stroke
grestore
gsave
204.46463 279.592681 m
205.913967 172.965449 l
347.444965 131.537874 l
stroke
grestore
2 setlinecap
0.000 setgray
gsave
276.918943 60.855396 m
280.687074 59.634332 l
stroke
grestore
gsave
283.101414 39.431683 translate
0.000000 rotate
0.000000 0 m /zero glyphshow
6.362305 0 m /period glyphshow
9.541016 0 m /zero glyphshow
grestore
gsave
291.674448 75.971049 m
295.400959 74.788789 l
stroke
grestore
gsave
297.645367 54.784255 translate
0.000000 rotate
0.000000 0 m /zero glyphshow
6.362305 0 m /period glyphshow
9.541016 0 m /two glyphshow
grestore
gsave
305.965005 90.610405 m
309.650627 89.465128 l
stroke
grestore
gsave
311.730582 69.652583 translate
0.000000 rotate
0.000000 0 m /zero glyphshow
6.362305 0 m /period glyphshow
9.541016 0 m /four glyphshow
grestore
gsave
319.812248 104.795627 m
323.457705 103.685624 l
stroke
grestore
gsave
325.378423 84.059221 translate
0.000000 rotate
0.000000 0 m /zero glyphshow
6.362305 0 m /period glyphshow
9.541016 0 m /six glyphshow
grestore
gsave
333.236491 118.547525 m
336.842497 117.471191 l
stroke
grestore
gsave
338.608953 98.025345 translate
0.000000 rotate
0.000000 0 m /zero glyphshow
6.362305 0 m /period glyphshow
9.541016 0 m /eight glyphshow
grestore
gsave
346.256825 131.885654 m
349.824086 130.841481 l
stroke
grestore
gsave
351.441023 111.570856 translate
0.000000 rotate
0.000000 0 m /one glyphshow
6.362305 0 m /period glyphshow
9.541016 0 m /zero glyphshow
grestore
gsave
352.090401 136.305234 m
357.122702 246.197829 l
stroke
grestore
gsave
386.145980 192.699284 translate
0.000000 rotate
0.000000 0 m /bracketleft glyphshow
3.901367 0 m /m glyphshow
13.642578 0 m /bracketright glyphshow
grestore
0 setlinecap
0.690 setgray
gsave
352.387133 142.78512 m
211.003989 183.569087 l
122.877789 110.265368 l
stroke
grestore
gsave
353.026117 156.738896 m
210.848627 197.079758 l
122.189557 124.556946 l
stroke
grestore
gsave
353.672393 170.851902 m
210.691577 210.737231 l
121.493172 139.017831 l
stroke
grestore
gsave
354.326085 185.126879 m
210.532811 224.543914 l
120.788488 153.65105 l
stroke
grestore
gsave
354.987324 199.566632 m
210.372301 238.502263 l
120.075356 168.459702 l
stroke
grestore
gsave
355.656239 214.174029 m
210.210018 252.614793 l
119.353623 183.446961 l
stroke
grestore
gsave
356.332965 228.952008 m
210.045933 266.884072 l
118.623132 198.616077 l
stroke
grestore
gsave
357.017641 243.903574 m
209.880015 281.312726 l
117.883723 213.970382 l
stroke
grestore
2 setlinecap
0.000 setgray
gsave
351.200393 143.127452 m
354.763445 142.09964 l
stroke
grestore
gsave
359.550127 137.783749 translate
0.000000 rotate
0.000000 0 m /zero glyphshow
6.362305 0 m /period glyphshow
9.541016 0 m /one glyphshow
15.903320 0 m /five glyphshow
grestore
gsave
351.832392 157.077599 m
355.416432 156.060678 l
stroke
grestore
gsave
360.290662 151.710004 translate
0.000000 rotate
0.000000 0 m /zero glyphshow
6.362305 0 m /period glyphshow
9.541016 0 m /two glyphshow
15.903320 0 m /zero glyphshow
grestore
gsave
352.471599 171.186871 m
356.076876 170.181158 l
stroke
grestore
gsave
361.039622 165.794691 translate
0.000000 rotate
0.000000 0 m /zero glyphshow
6.362305 0 m /period glyphshow
9.541016 0 m /two glyphshow
15.903320 0 m /five glyphshow
grestore
gsave
353.11814 185.458005 m
356.744906 184.463825 l
stroke
grestore
gsave
361.797151 180.040531 translate
0.000000 rotate
0.000000 0 m /zero glyphshow
6.362305 0 m /period glyphshow
9.541016 0 m /three glyphshow
15.903320 0 m /zero glyphshow
grestore
gsave
353.772141 199.893803 m
357.420653 198.911491 l
stroke
grestore
gsave
362.563398 194.450304 translate
0.000000 rotate
0.000000 0 m /zero glyphshow
6.362305 0 m /period glyphshow
9.541016 0 m /three glyphshow
15.903320 0 m /five glyphshow
grestore
gsave
354.433732 214.497132 m
358.104253 213.52703 l
stroke
grestore
gsave
363.338513 209.026856 translate
0.000000 rotate
0.000000 0 m /zero glyphshow
6.362305 0 m /period glyphshow
9.541016 0 m /four glyphshow
15.903320 0 m /zero glyphshow
grestore
gsave
355.103045 229.270925 m
358.795841 228.313387 l
stroke
grestore
gsave
364.122651 223.773100 translate
0.000000 rotate
0.000000 0 m /zero glyphshow
6.362305 0 m /period glyphshow
9.541016 0 m /four glyphshow
15.903320 0 m /five glyphshow
grestore
gsave
355.780217 244.218184 m
359.495561 243.273573 l
stroke
grestore
gsave
364.915971 238.692016 translate
0.000000 rotate
0.000000 0 m /zero glyphshow
6.362305 0 m /period glyphshow
9.541016 0 m /five glyphshow
15.903320 0 m /zero glyphshow
grestore
1.000 setlinewidth
0 setlinecap
1.000 0.000 0.000 setrgbcolor
gsave
266.1 266.1 103.1 38.02 clipbox
/o {
gsave
newpath
translate
1.0 setlinewidth
1 setlinejoin
0 setlinecap
0 -3 m
0.795609 -3 1.55874 -2.683901 2.12132 -2.12132 c
2.683901 -1.55874 3 -0.795609 3 0 c
3 0.795609 2.683901 1.55874 2.12132 2.12132 c
1.55874 2.683901 0.795609 3 0 3 c
-0.795609 3 -1.55874 2.683901 -2.12132 2.12132 c
-2.683901 1.55874 -3 0.795609 -3 0 c
-3 -0.795609 -2.683901 -1.55874 -2.12132 -2.12132 c
-1.55874 -2.683901 -0.795609 -3 0 -3 c
cl

gsave
1.000 0.000 0.000 setrgbcolor
fill
grestore
stroke
grestore
} bind def
339.585 212.703 o
335.146 204.795 o
331.724 187.687 o
330.422 168.162 o
329.523 148.686 o
323.595 131.999 o
311.571 123.884 o
297.842 124.332 o
284.334 129.171 o
271.063 135.785 o
257.833 143.104 o
244.542 150.736 o
231.146 158.54 o
217.629 166.463 o
203.982 174.487 o
190.2 182.603 o
176.28 190.808 o
162.218 199.1 o
148.012 207.479 o
133.66 215.945 o
grestore
1.500 setlinewidth
2 setlinecap
0.000 0.500 0.000 setrgbcolor
gsave
266.1 266.1 103.1 38.02 clipbox
339.584867 212.703055 m
337.850797 210.444879 l
336.82776 208.770116 l
335.831325 206.655075 l
335.029605 204.438762 l
334.114259 201.17107 l
333.136066 196.695009 l
332.285156 191.751099 l
331.508452 185.85608 l
330.957097 179.926289 l
330.572721 173.232351 l
330.384951 165.756787 l
330.174121 156.04769 l
329.868744 151.630019 l
329.422712 148.003887 l
328.759275 144.455091 l
327.865472 141.038143 l
326.978303 138.438529 l
325.93287 135.98996 l
324.724209 133.721812 l
323.347255 131.663338 l
321.804439 129.835239 l
320.116562 128.237684 l
318.307081 126.86795 l
316.399393 125.723469 l
314.416861 124.801821 l
312.382839 124.10072 l
310.319993 123.617353 l
308.240732 123.339486 l
305.625646 123.251585 l
303.001036 123.416389 l
300.375914 123.795856 l
297.238019 124.481051 l
293.606376 125.530088 l
290.003459 126.802274 l
285.914655 128.4734 l
280.836609 130.796258 l
274.775274 133.828072 l
266.716857 138.139984 l
256.133019 144.069756 l
239.401123 153.721994 l
206.947334 172.742798 l
133.660232 215.94518 l
133.660232 215.94518 l
stroke
grestore

end
showpage
